EESchema Schematic File Version 2
LIBS:power
LIBS:MyKiCadLibs-Lib
LIBS:BUF-DiffToDiff-ADAU1966-cache
EELAYER 25 0
EELAYER END
$Descr A3 16535 11693
encoding utf-8
Sheet 3 3
Title "OHDSP BUF-DiffToDiff-ADAU1966"
Date "22 Jan 16"
Rev "1.0"
Comp ""
Comment1 "MERCHANTABILITY, SATISFACTORY QUALITY AND FITNESS FOR A PARTICULAR PURPOSE."
Comment2 "is distributed WITHOUT ANY EXPRESS OR IMPLIED WARRANTY, INCLUDING OF"
Comment3 "Licensed under the TAPR Open Hardware License (www.tapr.org/OHL). This documentation"
Comment4 "Copyright Paul Janicki 2016"
$EndDescr
$Comp
L CONN_02X10 P301
U 1 1 56390339
P 2750 2050
AR Path="/56390339" Ref="P301"  Part="1" 
AR Path="/5633C57F/56390339" Ref="P301"  Part="1" 
F 0 "P301" H 2750 3100 50  0000 C CNN
F 1 "CONN_02X10" V 2750 2600 50  0000 C CNN
F 2 "MyKiCadLibs-Footprints:CONN_DIL_2X10_BOX" H 1950 1150 60  0001 C CNN
F 3 "" H 1950 1150 60  0000 C CNN
	1    2750 2050
	1    0    0    -1  
$EndComp
$Comp
L GNDA #PWR8
U 1 1 563AD1EC
P 1500 3550
F 0 "#PWR8" H 1500 3300 50  0001 C CNN
F 1 "GNDA" H 1500 3400 50  0000 C CNN
F 2 "" H 1500 3550 60  0000 C CNN
F 3 "" H 1500 3550 60  0000 C CNN
	1    1500 3550
	-1   0    0    -1  
$EndComp
$Comp
L GNDA #PWR7
U 1 1 563AD4A5
P 800 3550
F 0 "#PWR7" H 800 3300 50  0001 C CNN
F 1 "GNDA" H 800 3400 50  0000 C CNN
F 2 "" H 800 3550 60  0000 C CNN
F 3 "" H 800 3550 60  0000 C CNN
	1    800  3550
	-1   0    0    -1  
$EndComp
$Comp
L C C321
U 1 1 56831858
P 5500 4150
F 0 "C321" H 5500 4250 40  0000 L CNN
F 1 "100n" H 5506 4065 40  0000 L CNN
F 2 "MyKiCadLibs-Footprints:SMD-0805" H 5538 4000 30  0001 C CNN
F 3 "" H 5500 4150 60  0000 C CNN
	1    5500 4150
	1    0    0    -1  
$EndComp
$Comp
L C C325
U 1 1 5683185F
P 5750 4150
F 0 "C325" H 5750 4250 40  0000 L CNN
F 1 "1n" H 5756 4065 40  0000 L CNN
F 2 "MyKiCadLibs-Footprints:SMD-0805" H 5788 4000 30  0001 C CNN
F 3 "" H 5750 4150 60  0000 C CNN
	1    5750 4150
	1    0    0    -1  
$EndComp
$Comp
L C C315
U 1 1 5681DF1D
P 2700 4100
F 0 "C315" H 2700 4200 40  0000 L CNN
F 1 "100n" H 2706 4015 40  0000 L CNN
F 2 "MyKiCadLibs-Footprints:SMD-0805" H 2738 3950 30  0001 C CNN
F 3 "" H 2700 4100 60  0000 C CNN
	1    2700 4100
	1    0    0    -1  
$EndComp
$Comp
L GNDA #PWR10
U 1 1 568203FB
P 2700 4350
F 0 "#PWR10" H 2700 4100 50  0001 C CNN
F 1 "GNDA" H 2700 4200 50  0000 C CNN
F 2 "" H 2700 4350 60  0000 C CNN
F 3 "" H 2700 4350 60  0000 C CNN
	1    2700 4350
	-1   0    0    -1  
$EndComp
$Comp
L C C320
U 1 1 56824B6B
P 3000 4100
F 0 "C320" H 3000 4200 40  0000 L CNN
F 1 "100n" H 3006 4015 40  0000 L CNN
F 2 "MyKiCadLibs-Footprints:SMD-0805" H 3038 3950 30  0001 C CNN
F 3 "" H 3000 4100 60  0000 C CNN
	1    3000 4100
	1    0    0    -1  
$EndComp
$Comp
L GNDA #PWR15
U 1 1 56824CFB
P 3250 3900
F 0 "#PWR15" H 3250 3650 50  0001 C CNN
F 1 "GNDA" H 3250 3750 50  0000 C CNN
F 2 "" H 3250 3900 60  0000 C CNN
F 3 "" H 3250 3900 60  0000 C CNN
	1    3250 3900
	-1   0    0    -1  
$EndComp
$Comp
L C C316
U 1 1 5682BE10
P 5250 4150
F 0 "C316" H 5250 4250 40  0000 L CNN
F 1 "10u" H 5256 4065 40  0000 L CNN
F 2 "MyKiCadLibs-Footprints:SMD-1206" H 5288 4000 30  0001 C CNN
F 3 "" H 5250 4150 60  0000 C CNN
	1    5250 4150
	1    0    0    -1  
$EndComp
$Comp
L R R349
U 1 1 5682B545
P 800 3150
F 0 "R349" V 720 3150 40  0000 C CNN
F 1 "10" V 807 3151 40  0000 C CNN
F 2 "MyKiCadLibs-Footprints:SMD-1206" V 730 3150 30  0001 C CNN
F 3 "" H 800 3150 30  0000 C CNN
	1    800  3150
	1    0    0    1   
$EndComp
$Comp
L R R350
U 1 1 5682C6D8
P 1500 3150
F 0 "R350" V 1420 3150 40  0000 C CNN
F 1 "10" V 1507 3151 40  0000 C CNN
F 2 "MyKiCadLibs-Footprints:SMD-1206" V 1430 3150 30  0001 C CNN
F 3 "" H 1500 3150 30  0000 C CNN
	1    1500 3150
	-1   0    0    1   
$EndComp
$Comp
L C C373
U 1 1 5682CF62
P 1000 3150
F 0 "C373" H 1000 3250 40  0000 L CNN
F 1 "100n" H 1006 3065 40  0000 L CNN
F 2 "MyKiCadLibs-Footprints:SMD-0805" H 1038 3000 30  0001 C CNN
F 3 "" H 1000 3150 60  0000 C CNN
	1    1000 3150
	1    0    0    -1  
$EndComp
$Comp
L C C374
U 1 1 5682D806
P 1250 3150
F 0 "C374" H 1250 3250 40  0000 L CNN
F 1 "100n" H 1256 3065 40  0000 L CNN
F 2 "MyKiCadLibs-Footprints:SMD-0805" H 1288 3000 30  0001 C CNN
F 3 "" H 1250 3150 60  0000 C CNN
	1    1250 3150
	1    0    0    -1  
$EndComp
$Comp
L C C376
U 1 1 5682FC05
P 15100 2900
F 0 "C376" H 15100 3000 40  0000 L CNN
F 1 "100n" H 15106 2815 40  0000 L CNN
F 2 "MyKiCadLibs-Footprints:SMD-0805" H 15138 2750 30  0001 C CNN
F 3 "" H 15100 2900 60  0000 C CNN
	1    15100 2900
	-1   0    0    -1  
$EndComp
$Comp
L C C375
U 1 1 5682FBFA
P 15350 2900
F 0 "C375" H 15350 3000 40  0000 L CNN
F 1 "100n" H 15356 2815 40  0000 L CNN
F 2 "MyKiCadLibs-Footprints:SMD-0805" H 15388 2750 30  0001 C CNN
F 3 "" H 15350 2900 60  0000 C CNN
	1    15350 2900
	-1   0    0    -1  
$EndComp
$Comp
L R R352
U 1 1 5682FBF1
P 14850 2900
F 0 "R352" V 14770 2900 40  0000 C CNN
F 1 "10" V 14857 2901 40  0000 C CNN
F 2 "MyKiCadLibs-Footprints:SMD-1206" V 14780 2900 30  0001 C CNN
F 3 "" H 14850 2900 30  0000 C CNN
	1    14850 2900
	1    0    0    1   
$EndComp
$Comp
L R R351
U 1 1 5682FBE5
P 15550 2900
F 0 "R351" V 15470 2900 40  0000 C CNN
F 1 "10" V 15557 2901 40  0000 C CNN
F 2 "MyKiCadLibs-Footprints:SMD-1206" V 15480 2900 30  0001 C CNN
F 3 "" H 15550 2900 30  0000 C CNN
	1    15550 2900
	-1   0    0    1   
$EndComp
$Comp
L GNDA #PWR66
U 1 1 5682FBDB
P 15550 3300
F 0 "#PWR66" H 15550 3050 50  0001 C CNN
F 1 "GNDA" H 15550 3150 50  0000 C CNN
F 2 "" H 15550 3300 60  0000 C CNN
F 3 "" H 15550 3300 60  0000 C CNN
	1    15550 3300
	1    0    0    -1  
$EndComp
$Comp
L GNDA #PWR65
U 1 1 5682FBD5
P 14850 3300
F 0 "#PWR65" H 14850 3050 50  0001 C CNN
F 1 "GNDA" H 14850 3150 50  0000 C CNN
F 2 "" H 14850 3300 60  0000 C CNN
F 3 "" H 14850 3300 60  0000 C CNN
	1    14850 3300
	1    0    0    -1  
$EndComp
$Comp
L CONN_02X10 P302
U 1 1 5682E439
P 13100 1750
AR Path="/5682E439" Ref="P302"  Part="1" 
AR Path="/5633C57F/5682E439" Ref="P302"  Part="1" 
F 0 "P302" H 13100 2800 50  0000 C CNN
F 1 "CONN_02X10" V 13100 2300 50  0000 C CNN
F 2 "MyKiCadLibs-Footprints:CONN_DIL_2X10_BOX" H 12300 850 60  0001 C CNN
F 3 "" H 12300 850 60  0000 C CNN
	1    13100 1750
	-1   0    0    -1  
$EndComp
$Comp
L IC-OPAMP-DUAL-SOIC8 U301
U 2 1 5696EE2E
P 4450 5000
F 0 "U301" H 4500 4850 60  0000 L CNN
F 1 "IC-OPAMP-DUAL-SOIC8" H 3800 5250 60  0000 L CNN
F 2 "MyKiCadLibs-Footprints:IC_SOIC_8" H 4450 5000 60  0001 C CNN
F 3 "" H 4450 5000 60  0000 C CNN
	2    4450 5000
	1    0    0    -1  
$EndComp
$Comp
L -9VA #PWR22
U 1 1 5697380B
P 4450 4200
F 0 "#PWR22" H 4450 4075 50  0001 C CNN
F 1 "-9VA" H 4450 4350 50  0000 C CNN
F 2 "" H 4450 4200 50  0000 C CNN
F 3 "" H 4450 4200 50  0000 C CNN
	1    4450 4200
	-1   0    0    1   
$EndComp
$Comp
L +9VA #PWR21
U 1 1 56973857
P 4450 3100
F 0 "#PWR21" H 4450 2975 50  0001 C CNN
F 1 "+9VA" H 4450 3250 50  0000 C CNN
F 2 "" H 4450 3100 50  0000 C CNN
F 3 "" H 4450 3100 50  0000 C CNN
	1    4450 3100
	1    0    0    -1  
$EndComp
$Comp
L R R306
U 1 1 56977D4C
P 3200 4900
F 0 "R306" V 3120 4900 40  0000 C CNN
F 1 "1k54" V 3207 4901 40  0000 C CNN
F 2 "MyKiCadLibs-Footprints:SMD-1206" V 3130 4900 30  0001 C CNN
F 3 "" H 3200 4900 30  0000 C CNN
	1    3200 4900
	0    1    -1   0   
$EndComp
$Comp
L C C304
U 1 1 56977D52
P 3200 4600
F 0 "C304" H 3200 4700 40  0000 L CNN
F 1 "1n1" H 3206 4515 40  0000 L CNN
F 2 "MyKiCadLibs-Footprints:SMD-0805" H 3238 4450 30  0001 C CNN
F 3 "" H 3200 4600 60  0000 C CNN
	1    3200 4600
	0    -1   1    0   
$EndComp
$Comp
L R R318
U 1 1 56977D58
P 5700 5000
F 0 "R318" V 5620 5000 40  0000 C CNN
F 1 "100" V 5707 5001 40  0000 C CNN
F 2 "MyKiCadLibs-Footprints:SMD-1206" V 5630 5000 30  0001 C CNN
F 3 "" H 5700 5000 30  0000 C CNN
	1    5700 5000
	0    1    -1   0   
$EndComp
$Comp
L CP1 C324
U 1 1 56977D5E
P 6350 5000
F 0 "C324" H 6400 5100 50  0000 L CNN
F 1 "100u" H 6400 4900 50  0000 L CNN
F 2 "MyKiCadLibs-Footprints:CAP-TH-D10mmP5mm" H 6350 5000 60  0001 C CNN
F 3 "" H 6350 5000 60  0000 C CNN
	1    6350 5000
	0    -1   -1   0   
$EndComp
$Comp
L R R322
U 1 1 56977D65
P 6400 5550
F 0 "R322" V 6320 5550 40  0000 C CNN
F 1 "100K" V 6407 5551 40  0000 C CNN
F 2 "MyKiCadLibs-Footprints:SMD-1206" V 6330 5550 30  0001 C CNN
F 3 "" H 6400 5550 30  0000 C CNN
	1    6400 5550
	0    -1   1    0   
$EndComp
$Comp
L C C326
U 1 1 56977D6D
P 6350 5250
F 0 "C326" H 6350 5350 40  0000 L CNN
F 1 "100n" H 6356 5165 40  0000 L CNN
F 2 "MyKiCadLibs-Footprints:CAP_TH_5mm" H 6388 5100 30  0001 C CNN
F 3 "" H 6350 5250 60  0000 C CNN
	1    6350 5250
	0    -1   1    0   
$EndComp
$Comp
L GNDA #PWR34
U 1 1 56977D78
P 6050 5650
F 0 "#PWR34" H 6050 5400 50  0001 C CNN
F 1 "GNDA" H 6050 5500 50  0000 C CNN
F 2 "" H 6050 5650 60  0000 C CNN
F 3 "" H 6050 5650 60  0000 C CNN
	1    6050 5650
	-1   0    0    -1  
$EndComp
$Comp
L R R315
U 1 1 56977DDC
P 4450 5350
F 0 "R315" V 4370 5350 40  0000 C CNN
F 1 "422" V 4457 5351 40  0000 C CNN
F 2 "MyKiCadLibs-Footprints:SMD-1206" V 4380 5350 30  0001 C CNN
F 3 "" H 4450 5350 30  0000 C CNN
	1    4450 5350
	0    -1   1    0   
$EndComp
$Comp
L R R302
U 1 1 56977DEF
P 2500 4900
F 0 "R302" V 2420 4900 40  0000 C CNN
F 1 "1k5" V 2507 4901 40  0000 C CNN
F 2 "MyKiCadLibs-Footprints:SMD-1206" V 2430 4900 30  0001 C CNN
F 3 "" H 2500 4900 30  0000 C CNN
	1    2500 4900
	0    1    -1   0   
$EndComp
$Comp
L R R312
U 1 1 56977DFF
P 4150 5550
F 0 "R312" V 4070 5550 40  0000 C CNN
F 1 "2k49" V 4157 5551 40  0000 C CNN
F 2 "MyKiCadLibs-Footprints:SMD-1206" V 4080 5550 30  0001 C CNN
F 3 "" H 4150 5550 30  0000 C CNN
	1    4150 5550
	0    1    -1   0   
$EndComp
$Comp
L GNDA #PWR26
U 1 1 56977E0F
P 5050 5650
F 0 "#PWR26" H 5050 5400 50  0001 C CNN
F 1 "GNDA" H 5050 5500 50  0000 C CNN
F 2 "" H 5050 5650 60  0000 C CNN
F 3 "" H 5050 5650 60  0000 C CNN
	1    5050 5650
	-1   0    0    -1  
$EndComp
$Comp
L C C308
U 1 1 56977E1B
P 3550 5250
F 0 "C308" H 3550 5350 40  0000 L CNN
F 1 "1n" H 3556 5165 40  0000 L CNN
F 2 "MyKiCadLibs-Footprints:SMD-0805" H 3588 5100 30  0001 C CNN
F 3 "" H 3550 5250 60  0000 C CNN
	1    3550 5250
	-1   0    0    -1  
$EndComp
$Comp
L GNDA #PWR18
U 1 1 56977E23
P 3550 5550
F 0 "#PWR18" H 3550 5300 50  0001 C CNN
F 1 "GNDA" H 3550 5400 50  0000 C CNN
F 2 "" H 3550 5550 60  0000 C CNN
F 3 "" H 3550 5550 60  0000 C CNN
	1    3550 5550
	-1   0    0    -1  
$EndComp
$Comp
L IC-OPAMP-DUAL-SOIC8 U301
U 1 1 5696B8FD
P 4450 3550
F 0 "U301" H 4500 3400 60  0000 L CNN
F 1 "IC-OPAMP-DUAL-SOIC8" H 3800 3800 60  0000 L CNN
F 2 "MyKiCadLibs-Footprints:IC_SOIC_8" H 4450 3550 60  0001 C CNN
F 3 "" H 4450 3550 60  0000 C CNN
	1    4450 3550
	1    0    0    -1  
$EndComp
$Comp
L R R305
U 1 1 5696B903
P 3200 3450
F 0 "R305" V 3120 3450 40  0000 C CNN
F 1 "1k54" V 3207 3451 40  0000 C CNN
F 2 "MyKiCadLibs-Footprints:SMD-1206" V 3130 3450 30  0001 C CNN
F 3 "" H 3200 3450 30  0000 C CNN
	1    3200 3450
	0    1    -1   0   
$EndComp
$Comp
L C C303
U 1 1 5696B909
P 3200 3150
F 0 "C303" H 3200 3250 40  0000 L CNN
F 1 "1n1" H 3206 3065 40  0000 L CNN
F 2 "MyKiCadLibs-Footprints:SMD-0805" H 3238 3000 30  0001 C CNN
F 3 "" H 3200 3150 60  0000 C CNN
	1    3200 3150
	0    -1   1    0   
$EndComp
$Comp
L R R317
U 1 1 5696B90F
P 5700 3550
F 0 "R317" V 5620 3550 40  0000 C CNN
F 1 "100" V 5707 3551 40  0000 C CNN
F 2 "MyKiCadLibs-Footprints:SMD-1206" V 5630 3550 30  0001 C CNN
F 3 "" H 5700 3550 30  0000 C CNN
	1    5700 3550
	0    1    -1   0   
$EndComp
$Comp
L CP1 C322
U 1 1 5696B915
P 6350 3550
F 0 "C322" H 6400 3650 50  0000 L CNN
F 1 "100u" H 6400 3450 50  0000 L CNN
F 2 "MyKiCadLibs-Footprints:CAP-TH-D10mmP5mm" H 6350 3550 60  0001 C CNN
F 3 "" H 6350 3550 60  0000 C CNN
	1    6350 3550
	0    -1   -1   0   
$EndComp
$Comp
L R R321
U 1 1 5696B91D
P 6400 4100
F 0 "R321" V 6320 4100 40  0000 C CNN
F 1 "100K" V 6407 4101 40  0000 C CNN
F 2 "MyKiCadLibs-Footprints:SMD-1206" V 6330 4100 30  0001 C CNN
F 3 "" H 6400 4100 30  0000 C CNN
	1    6400 4100
	0    -1   1    0   
$EndComp
$Comp
L C C323
U 1 1 5696B927
P 6350 3800
F 0 "C323" H 6350 3900 40  0000 L CNN
F 1 "100n" H 6356 3715 40  0000 L CNN
F 2 "MyKiCadLibs-Footprints:CAP_TH_5mm" H 6388 3650 30  0001 C CNN
F 3 "" H 6350 3800 60  0000 C CNN
	1    6350 3800
	0    -1   1    0   
$EndComp
$Comp
L GNDA #PWR33
U 1 1 5696B932
P 6050 4200
F 0 "#PWR33" H 6050 3950 50  0001 C CNN
F 1 "GNDA" H 6050 4050 50  0000 C CNN
F 2 "" H 6050 4200 60  0000 C CNN
F 3 "" H 6050 4200 60  0000 C CNN
	1    6050 4200
	-1   0    0    -1  
$EndComp
$Comp
L R R309
U 1 1 5696B93A
P 4100 3950
F 0 "R309" V 4020 3950 40  0000 C CNN
F 1 "422" V 4107 3951 40  0000 C CNN
F 2 "MyKiCadLibs-Footprints:SMD-1206" V 4030 3950 30  0001 C CNN
F 3 "" H 4100 3950 30  0000 C CNN
	1    4100 3950
	0    -1   1    0   
$EndComp
$Comp
L R R301
U 1 1 5696B943
P 2500 3450
F 0 "R301" V 2420 3450 40  0000 C CNN
F 1 "1k5" V 2507 3451 40  0000 C CNN
F 2 "MyKiCadLibs-Footprints:SMD-1206" V 2430 3450 30  0001 C CNN
F 3 "" H 2500 3450 30  0000 C CNN
	1    2500 3450
	0    1    -1   0   
$EndComp
$Comp
L R R311
U 1 1 5696B955
P 4150 4100
F 0 "R311" V 4070 4100 40  0000 C CNN
F 1 "2k49" V 4157 4101 40  0000 C CNN
F 2 "MyKiCadLibs-Footprints:SMD-1206" V 4080 4100 30  0001 C CNN
F 3 "" H 4150 4100 30  0000 C CNN
	1    4150 4100
	0    1    -1   0   
$EndComp
$Comp
L CP1 C311
U 1 1 5696B95B
P 4750 4100
F 0 "C311" H 4800 4200 50  0000 L CNN
F 1 "100u" H 4800 4000 50  0000 L CNN
F 2 "MyKiCadLibs-Footprints:CAP-TH-D6.3mmP2.5mm" H 4750 4100 60  0001 C CNN
F 3 "" H 4750 4100 60  0000 C CNN
	1    4750 4100
	0    -1   1    0   
$EndComp
$Comp
L GNDA #PWR25
U 1 1 5696B961
P 5050 4200
F 0 "#PWR25" H 5050 3950 50  0001 C CNN
F 1 "GNDA" H 5050 4050 50  0000 C CNN
F 2 "" H 5050 4200 60  0000 C CNN
F 3 "" H 5050 4200 60  0000 C CNN
	1    5050 4200
	-1   0    0    -1  
$EndComp
$Comp
L C C307
U 1 1 5696B969
P 3550 3800
F 0 "C307" H 3550 3900 40  0000 L CNN
F 1 "1n" H 3556 3715 40  0000 L CNN
F 2 "MyKiCadLibs-Footprints:SMD-0805" H 3588 3650 30  0001 C CNN
F 3 "" H 3550 3800 60  0000 C CNN
	1    3550 3800
	-1   0    0    -1  
$EndComp
$Comp
L GNDA #PWR17
U 1 1 5696B971
P 3550 4100
F 0 "#PWR17" H 3550 3850 50  0001 C CNN
F 1 "GNDA" H 3550 3950 50  0000 C CNN
F 2 "" H 3550 4100 60  0000 C CNN
F 3 "" H 3550 4100 60  0000 C CNN
	1    3550 4100
	-1   0    0    -1  
$EndComp
$Comp
L +9VA #PWR9
U 1 1 569703D1
P 2700 3800
F 0 "#PWR9" H 2700 3675 50  0001 C CNN
F 1 "+9VA" H 2700 3950 50  0000 C CNN
F 2 "" H 2700 3800 50  0000 C CNN
F 3 "" H 2700 3800 50  0000 C CNN
	1    2700 3800
	1    0    0    -1  
$EndComp
$Comp
L -9VA #PWR13
U 1 1 56970520
P 3000 4350
F 0 "#PWR13" H 3000 4225 50  0001 C CNN
F 1 "-9VA" H 3000 4500 50  0000 C CNN
F 2 "" H 3000 4350 50  0000 C CNN
F 3 "" H 3000 4350 50  0000 C CNN
	1    3000 4350
	-1   0    0    1   
$EndComp
$Comp
L -9VA #PWR30
U 1 1 569708FC
P 5750 4450
F 0 "#PWR30" H 5750 4325 50  0001 C CNN
F 1 "-9VA" H 5750 4600 50  0000 C CNN
F 2 "" H 5750 4450 50  0000 C CNN
F 3 "" H 5750 4450 50  0000 C CNN
	1    5750 4450
	-1   0    0    1   
$EndComp
$Comp
L +9VA #PWR29
U 1 1 5697097C
P 5750 3850
F 0 "#PWR29" H 5750 3725 50  0001 C CNN
F 1 "+9VA" H 5750 4000 50  0000 C CNN
F 2 "" H 5750 3850 50  0000 C CNN
F 3 "" H 5750 3850 50  0000 C CNN
	1    5750 3850
	1    0    0    -1  
$EndComp
$Comp
L C C318
U 1 1 5698FCDB
P 5500 7050
F 0 "C318" H 5500 7150 40  0000 L CNN
F 1 "100n" H 5506 6965 40  0000 L CNN
F 2 "MyKiCadLibs-Footprints:SMD-0805" H 5538 6900 30  0001 C CNN
F 3 "" H 5500 7050 60  0000 C CNN
	1    5500 7050
	1    0    0    -1  
$EndComp
$Comp
L C C319
U 1 1 5698FCE1
P 5750 7050
F 0 "C319" H 5750 7150 40  0000 L CNN
F 1 "1n" H 5756 6965 40  0000 L CNN
F 2 "MyKiCadLibs-Footprints:SMD-0805" H 5788 6900 30  0001 C CNN
F 3 "" H 5750 7050 60  0000 C CNN
	1    5750 7050
	1    0    0    -1  
$EndComp
$Comp
L C C301
U 1 1 5698FCE7
P 2700 7000
F 0 "C301" H 2700 7100 40  0000 L CNN
F 1 "100n" H 2706 6915 40  0000 L CNN
F 2 "MyKiCadLibs-Footprints:SMD-0805" H 2738 6850 30  0001 C CNN
F 3 "" H 2700 7000 60  0000 C CNN
	1    2700 7000
	1    0    0    -1  
$EndComp
$Comp
L GNDA #PWR12
U 1 1 5698FCED
P 2700 7250
F 0 "#PWR12" H 2700 7000 50  0001 C CNN
F 1 "GNDA" H 2700 7100 50  0000 C CNN
F 2 "" H 2700 7250 60  0000 C CNN
F 3 "" H 2700 7250 60  0000 C CNN
	1    2700 7250
	-1   0    0    -1  
$EndComp
$Comp
L C C302
U 1 1 5698FCF5
P 3000 7000
F 0 "C302" H 3000 7100 40  0000 L CNN
F 1 "100n" H 3006 6915 40  0000 L CNN
F 2 "MyKiCadLibs-Footprints:SMD-0805" H 3038 6850 30  0001 C CNN
F 3 "" H 3000 7000 60  0000 C CNN
	1    3000 7000
	1    0    0    -1  
$EndComp
$Comp
L GNDA #PWR16
U 1 1 5698FCFB
P 3250 6800
F 0 "#PWR16" H 3250 6550 50  0001 C CNN
F 1 "GNDA" H 3250 6650 50  0000 C CNN
F 2 "" H 3250 6800 60  0000 C CNN
F 3 "" H 3250 6800 60  0000 C CNN
	1    3250 6800
	-1   0    0    -1  
$EndComp
$Comp
L C C317
U 1 1 5698FD05
P 5250 7050
F 0 "C317" H 5250 7150 40  0000 L CNN
F 1 "10u" H 5256 6965 40  0000 L CNN
F 2 "MyKiCadLibs-Footprints:SMD-1206" H 5288 6900 30  0001 C CNN
F 3 "" H 5250 7050 60  0000 C CNN
	1    5250 7050
	1    0    0    -1  
$EndComp
$Comp
L IC-OPAMP-DUAL-SOIC8 U302
U 2 1 5698FD0B
P 4450 7900
F 0 "U302" H 4500 7750 60  0000 L CNN
F 1 "IC-OPAMP-DUAL-SOIC8" H 3800 8150 60  0000 L CNN
F 2 "MyKiCadLibs-Footprints:IC_SOIC_8" H 4450 7900 60  0001 C CNN
F 3 "" H 4450 7900 60  0000 C CNN
	2    4450 7900
	1    0    0    -1  
$EndComp
$Comp
L -9VA #PWR24
U 1 1 5698FD11
P 4450 7100
F 0 "#PWR24" H 4450 6975 50  0001 C CNN
F 1 "-9VA" H 4450 7250 50  0000 C CNN
F 2 "" H 4450 7100 50  0000 C CNN
F 3 "" H 4450 7100 50  0000 C CNN
	1    4450 7100
	-1   0    0    1   
$EndComp
$Comp
L +9VA #PWR23
U 1 1 5698FD17
P 4450 6000
F 0 "#PWR23" H 4450 5875 50  0001 C CNN
F 1 "+9VA" H 4450 6150 50  0000 C CNN
F 2 "" H 4450 6000 50  0000 C CNN
F 3 "" H 4450 6000 50  0000 C CNN
	1    4450 6000
	1    0    0    -1  
$EndComp
$Comp
L R R308
U 1 1 5698FD1D
P 3200 7800
F 0 "R308" V 3120 7800 40  0000 C CNN
F 1 "1k54" V 3207 7801 40  0000 C CNN
F 2 "MyKiCadLibs-Footprints:SMD-1206" V 3130 7800 30  0001 C CNN
F 3 "" H 3200 7800 30  0000 C CNN
	1    3200 7800
	0    1    -1   0   
$EndComp
$Comp
L C C306
U 1 1 5698FD23
P 3200 7500
F 0 "C306" H 3200 7600 40  0000 L CNN
F 1 "1n1" H 3206 7415 40  0000 L CNN
F 2 "MyKiCadLibs-Footprints:SMD-0805" H 3238 7350 30  0001 C CNN
F 3 "" H 3200 7500 60  0000 C CNN
	1    3200 7500
	0    -1   1    0   
$EndComp
$Comp
L R R320
U 1 1 5698FD29
P 5700 7900
F 0 "R320" V 5620 7900 40  0000 C CNN
F 1 "100" V 5707 7901 40  0000 C CNN
F 2 "MyKiCadLibs-Footprints:SMD-1206" V 5630 7900 30  0001 C CNN
F 3 "" H 5700 7900 30  0000 C CNN
	1    5700 7900
	0    1    -1   0   
$EndComp
$Comp
L CP1 C329
U 1 1 5698FD2F
P 6350 7900
F 0 "C329" H 6400 8000 50  0000 L CNN
F 1 "100u" H 6400 7800 50  0000 L CNN
F 2 "MyKiCadLibs-Footprints:CAP-TH-D10mmP5mm" H 6350 7900 60  0001 C CNN
F 3 "" H 6350 7900 60  0000 C CNN
	1    6350 7900
	0    -1   -1   0   
$EndComp
$Comp
L R R324
U 1 1 5698FD36
P 6400 8450
F 0 "R324" V 6320 8450 40  0000 C CNN
F 1 "100K" V 6407 8451 40  0000 C CNN
F 2 "MyKiCadLibs-Footprints:SMD-1206" V 6330 8450 30  0001 C CNN
F 3 "" H 6400 8450 30  0000 C CNN
	1    6400 8450
	0    -1   1    0   
$EndComp
$Comp
L C C330
U 1 1 5698FD3E
P 6350 8150
F 0 "C330" H 6350 8250 40  0000 L CNN
F 1 "100n" H 6356 8065 40  0000 L CNN
F 2 "MyKiCadLibs-Footprints:CAP_TH_5mm" H 6388 8000 30  0001 C CNN
F 3 "" H 6350 8150 60  0000 C CNN
	1    6350 8150
	0    -1   1    0   
$EndComp
$Comp
L GNDA #PWR36
U 1 1 5698FD49
P 6050 8550
F 0 "#PWR36" H 6050 8300 50  0001 C CNN
F 1 "GNDA" H 6050 8400 50  0000 C CNN
F 2 "" H 6050 8550 60  0000 C CNN
F 3 "" H 6050 8550 60  0000 C CNN
	1    6050 8550
	-1   0    0    -1  
$EndComp
$Comp
L R R316
U 1 1 5698FD51
P 4450 8250
F 0 "R316" V 4370 8250 40  0000 C CNN
F 1 "422" V 4457 8251 40  0000 C CNN
F 2 "MyKiCadLibs-Footprints:SMD-1206" V 4380 8250 30  0001 C CNN
F 3 "" H 4450 8250 30  0000 C CNN
	1    4450 8250
	0    -1   1    0   
$EndComp
$Comp
L R R304
U 1 1 5698FD58
P 2500 7800
F 0 "R304" V 2420 7800 40  0000 C CNN
F 1 "1k5" V 2507 7801 40  0000 C CNN
F 2 "MyKiCadLibs-Footprints:SMD-1206" V 2430 7800 30  0001 C CNN
F 3 "" H 2500 7800 30  0000 C CNN
	1    2500 7800
	0    1    -1   0   
$EndComp
$Comp
L R R314
U 1 1 5698FD68
P 4150 8450
F 0 "R314" V 4070 8450 40  0000 C CNN
F 1 "2k49" V 4157 8451 40  0000 C CNN
F 2 "MyKiCadLibs-Footprints:SMD-1206" V 4080 8450 30  0001 C CNN
F 3 "" H 4150 8450 30  0000 C CNN
	1    4150 8450
	0    1    -1   0   
$EndComp
$Comp
L GNDA #PWR28
U 1 1 5698FD74
P 5050 8550
F 0 "#PWR28" H 5050 8300 50  0001 C CNN
F 1 "GNDA" H 5050 8400 50  0000 C CNN
F 2 "" H 5050 8550 60  0000 C CNN
F 3 "" H 5050 8550 60  0000 C CNN
	1    5050 8550
	-1   0    0    -1  
$EndComp
$Comp
L C C310
U 1 1 5698FD7C
P 3550 8150
F 0 "C310" H 3550 8250 40  0000 L CNN
F 1 "1n" H 3556 8065 40  0000 L CNN
F 2 "MyKiCadLibs-Footprints:SMD-0805" H 3588 8000 30  0001 C CNN
F 3 "" H 3550 8150 60  0000 C CNN
	1    3550 8150
	-1   0    0    -1  
$EndComp
$Comp
L GNDA #PWR20
U 1 1 5698FD84
P 3550 8450
F 0 "#PWR20" H 3550 8200 50  0001 C CNN
F 1 "GNDA" H 3550 8300 50  0000 C CNN
F 2 "" H 3550 8450 60  0000 C CNN
F 3 "" H 3550 8450 60  0000 C CNN
	1    3550 8450
	-1   0    0    -1  
$EndComp
$Comp
L IC-OPAMP-DUAL-SOIC8 U302
U 1 1 5698FD94
P 4450 6450
F 0 "U302" H 4500 6300 60  0000 L CNN
F 1 "IC-OPAMP-DUAL-SOIC8" H 3800 6700 60  0000 L CNN
F 2 "MyKiCadLibs-Footprints:IC_SOIC_8" H 4450 6450 60  0001 C CNN
F 3 "" H 4450 6450 60  0000 C CNN
	1    4450 6450
	1    0    0    -1  
$EndComp
$Comp
L R R307
U 1 1 5698FD9A
P 3200 6350
F 0 "R307" V 3120 6350 40  0000 C CNN
F 1 "1k54" V 3207 6351 40  0000 C CNN
F 2 "MyKiCadLibs-Footprints:SMD-1206" V 3130 6350 30  0001 C CNN
F 3 "" H 3200 6350 30  0000 C CNN
	1    3200 6350
	0    1    -1   0   
$EndComp
$Comp
L C C305
U 1 1 5698FDA0
P 3200 6050
F 0 "C305" H 3200 6150 40  0000 L CNN
F 1 "1n1" H 3206 5965 40  0000 L CNN
F 2 "MyKiCadLibs-Footprints:SMD-0805" H 3238 5900 30  0001 C CNN
F 3 "" H 3200 6050 60  0000 C CNN
	1    3200 6050
	0    -1   1    0   
$EndComp
$Comp
L R R319
U 1 1 5698FDA6
P 5700 6450
F 0 "R319" V 5620 6450 40  0000 C CNN
F 1 "100" V 5707 6451 40  0000 C CNN
F 2 "MyKiCadLibs-Footprints:SMD-1206" V 5630 6450 30  0001 C CNN
F 3 "" H 5700 6450 30  0000 C CNN
	1    5700 6450
	0    1    -1   0   
$EndComp
$Comp
L CP1 C327
U 1 1 5698FDAC
P 6350 6450
F 0 "C327" H 6400 6550 50  0000 L CNN
F 1 "100u" H 6400 6350 50  0000 L CNN
F 2 "MyKiCadLibs-Footprints:CAP-TH-D10mmP5mm" H 6350 6450 60  0001 C CNN
F 3 "" H 6350 6450 60  0000 C CNN
	1    6350 6450
	0    -1   -1   0   
$EndComp
$Comp
L R R323
U 1 1 5698FDB3
P 6400 7000
F 0 "R323" V 6320 7000 40  0000 C CNN
F 1 "100K" V 6407 7001 40  0000 C CNN
F 2 "MyKiCadLibs-Footprints:SMD-1206" V 6330 7000 30  0001 C CNN
F 3 "" H 6400 7000 30  0000 C CNN
	1    6400 7000
	0    -1   1    0   
$EndComp
$Comp
L C C328
U 1 1 5698FDBB
P 6350 6700
F 0 "C328" H 6350 6800 40  0000 L CNN
F 1 "100n" H 6356 6615 40  0000 L CNN
F 2 "MyKiCadLibs-Footprints:CAP_TH_5mm" H 6388 6550 30  0001 C CNN
F 3 "" H 6350 6700 60  0000 C CNN
	1    6350 6700
	0    -1   1    0   
$EndComp
$Comp
L GNDA #PWR35
U 1 1 5698FDC6
P 6050 7100
F 0 "#PWR35" H 6050 6850 50  0001 C CNN
F 1 "GNDA" H 6050 6950 50  0000 C CNN
F 2 "" H 6050 7100 60  0000 C CNN
F 3 "" H 6050 7100 60  0000 C CNN
	1    6050 7100
	-1   0    0    -1  
$EndComp
$Comp
L R R310
U 1 1 5698FDCE
P 4100 6850
F 0 "R310" V 4020 6850 40  0000 C CNN
F 1 "422" V 4107 6851 40  0000 C CNN
F 2 "MyKiCadLibs-Footprints:SMD-1206" V 4030 6850 30  0001 C CNN
F 3 "" H 4100 6850 30  0000 C CNN
	1    4100 6850
	0    -1   1    0   
$EndComp
$Comp
L R R303
U 1 1 5698FDD5
P 2500 6350
F 0 "R303" V 2420 6350 40  0000 C CNN
F 1 "1k5" V 2507 6351 40  0000 C CNN
F 2 "MyKiCadLibs-Footprints:SMD-1206" V 2430 6350 30  0001 C CNN
F 3 "" H 2500 6350 30  0000 C CNN
	1    2500 6350
	0    1    -1   0   
$EndComp
$Comp
L R R313
U 1 1 5698FDE5
P 4150 7000
F 0 "R313" V 4070 7000 40  0000 C CNN
F 1 "2k49" V 4157 7001 40  0000 C CNN
F 2 "MyKiCadLibs-Footprints:SMD-1206" V 4080 7000 30  0001 C CNN
F 3 "" H 4150 7000 30  0000 C CNN
	1    4150 7000
	0    1    -1   0   
$EndComp
$Comp
L GNDA #PWR27
U 1 1 5698FDF1
P 5050 7100
F 0 "#PWR27" H 5050 6850 50  0001 C CNN
F 1 "GNDA" H 5050 6950 50  0000 C CNN
F 2 "" H 5050 7100 60  0000 C CNN
F 3 "" H 5050 7100 60  0000 C CNN
	1    5050 7100
	-1   0    0    -1  
$EndComp
$Comp
L C C309
U 1 1 5698FDF9
P 3550 6700
F 0 "C309" H 3550 6800 40  0000 L CNN
F 1 "1n" H 3556 6615 40  0000 L CNN
F 2 "MyKiCadLibs-Footprints:SMD-0805" H 3588 6550 30  0001 C CNN
F 3 "" H 3550 6700 60  0000 C CNN
	1    3550 6700
	-1   0    0    -1  
$EndComp
$Comp
L GNDA #PWR19
U 1 1 5698FE01
P 3550 7000
F 0 "#PWR19" H 3550 6750 50  0001 C CNN
F 1 "GNDA" H 3550 6850 50  0000 C CNN
F 2 "" H 3550 7000 60  0000 C CNN
F 3 "" H 3550 7000 60  0000 C CNN
	1    3550 7000
	-1   0    0    -1  
$EndComp
$Comp
L +9VA #PWR11
U 1 1 5698FE13
P 2700 6700
F 0 "#PWR11" H 2700 6575 50  0001 C CNN
F 1 "+9VA" H 2700 6850 50  0000 C CNN
F 2 "" H 2700 6700 50  0000 C CNN
F 3 "" H 2700 6700 50  0000 C CNN
	1    2700 6700
	1    0    0    -1  
$EndComp
$Comp
L -9VA #PWR14
U 1 1 5698FE19
P 3000 7250
F 0 "#PWR14" H 3000 7125 50  0001 C CNN
F 1 "-9VA" H 3000 7400 50  0000 C CNN
F 2 "" H 3000 7250 50  0000 C CNN
F 3 "" H 3000 7250 50  0000 C CNN
	1    3000 7250
	-1   0    0    1   
$EndComp
$Comp
L -9VA #PWR32
U 1 1 5698FE1F
P 5750 7350
F 0 "#PWR32" H 5750 7225 50  0001 C CNN
F 1 "-9VA" H 5750 7500 50  0000 C CNN
F 2 "" H 5750 7350 50  0000 C CNN
F 3 "" H 5750 7350 50  0000 C CNN
	1    5750 7350
	-1   0    0    1   
$EndComp
$Comp
L +9VA #PWR31
U 1 1 5698FE25
P 5750 6750
F 0 "#PWR31" H 5750 6625 50  0001 C CNN
F 1 "+9VA" H 5750 6900 50  0000 C CNN
F 2 "" H 5750 6750 50  0000 C CNN
F 3 "" H 5750 6750 50  0000 C CNN
	1    5750 6750
	1    0    0    -1  
$EndComp
$Comp
L C C349
U 1 1 56998513
P 11900 4250
F 0 "C349" H 11900 4350 40  0000 L CNN
F 1 "100n" H 11906 4165 40  0000 L CNN
F 2 "MyKiCadLibs-Footprints:SMD-0805" H 11938 4100 30  0001 C CNN
F 3 "" H 11900 4250 60  0000 C CNN
	1    11900 4250
	1    0    0    -1  
$EndComp
$Comp
L C C351
U 1 1 56998519
P 12150 4250
F 0 "C351" H 12150 4350 40  0000 L CNN
F 1 "1n" H 12156 4165 40  0000 L CNN
F 2 "MyKiCadLibs-Footprints:SMD-0805" H 12188 4100 30  0001 C CNN
F 3 "" H 12150 4250 60  0000 C CNN
	1    12150 4250
	1    0    0    -1  
$EndComp
$Comp
L C C331
U 1 1 5699851F
P 9100 4200
F 0 "C331" H 9100 4300 40  0000 L CNN
F 1 "100n" H 9106 4115 40  0000 L CNN
F 2 "MyKiCadLibs-Footprints:SMD-0805" H 9138 4050 30  0001 C CNN
F 3 "" H 9100 4200 60  0000 C CNN
	1    9100 4200
	1    0    0    -1  
$EndComp
$Comp
L GNDA #PWR38
U 1 1 56998525
P 9100 4450
F 0 "#PWR38" H 9100 4200 50  0001 C CNN
F 1 "GNDA" H 9100 4300 50  0000 C CNN
F 2 "" H 9100 4450 60  0000 C CNN
F 3 "" H 9100 4450 60  0000 C CNN
	1    9100 4450
	-1   0    0    -1  
$EndComp
$Comp
L C C333
U 1 1 5699852D
P 9400 4200
F 0 "C333" H 9400 4300 40  0000 L CNN
F 1 "100n" H 9406 4115 40  0000 L CNN
F 2 "MyKiCadLibs-Footprints:SMD-0805" H 9438 4050 30  0001 C CNN
F 3 "" H 9400 4200 60  0000 C CNN
	1    9400 4200
	1    0    0    -1  
$EndComp
$Comp
L GNDA #PWR43
U 1 1 56998533
P 9650 4000
F 0 "#PWR43" H 9650 3750 50  0001 C CNN
F 1 "GNDA" H 9650 3850 50  0000 C CNN
F 2 "" H 9650 4000 60  0000 C CNN
F 3 "" H 9650 4000 60  0000 C CNN
	1    9650 4000
	-1   0    0    -1  
$EndComp
$Comp
L C C347
U 1 1 5699853D
P 11650 4250
F 0 "C347" H 11650 4350 40  0000 L CNN
F 1 "10u" H 11656 4165 40  0000 L CNN
F 2 "MyKiCadLibs-Footprints:SMD-1206" H 11688 4100 30  0001 C CNN
F 3 "" H 11650 4250 60  0000 C CNN
	1    11650 4250
	1    0    0    -1  
$EndComp
$Comp
L IC-OPAMP-DUAL-SOIC8 U303
U 2 1 56998543
P 10850 5100
F 0 "U303" H 10900 4950 60  0000 L CNN
F 1 "IC-OPAMP-DUAL-SOIC8" H 10200 5350 60  0000 L CNN
F 2 "MyKiCadLibs-Footprints:IC_SOIC_8" H 10850 5100 60  0001 C CNN
F 3 "" H 10850 5100 60  0000 C CNN
	2    10850 5100
	1    0    0    -1  
$EndComp
$Comp
L -9VA #PWR50
U 1 1 56998549
P 10850 4300
F 0 "#PWR50" H 10850 4175 50  0001 C CNN
F 1 "-9VA" H 10850 4450 50  0000 C CNN
F 2 "" H 10850 4300 50  0000 C CNN
F 3 "" H 10850 4300 50  0000 C CNN
	1    10850 4300
	-1   0    0    1   
$EndComp
$Comp
L +9VA #PWR49
U 1 1 5699854F
P 10850 3200
F 0 "#PWR49" H 10850 3075 50  0001 C CNN
F 1 "+9VA" H 10850 3350 50  0000 C CNN
F 2 "" H 10850 3200 50  0000 C CNN
F 3 "" H 10850 3200 50  0000 C CNN
	1    10850 3200
	1    0    0    -1  
$EndComp
$Comp
L R R330
U 1 1 56998555
P 9600 5000
F 0 "R330" V 9520 5000 40  0000 C CNN
F 1 "1k54" V 9607 5001 40  0000 C CNN
F 2 "MyKiCadLibs-Footprints:SMD-1206" V 9530 5000 30  0001 C CNN
F 3 "" H 9600 5000 30  0000 C CNN
	1    9600 5000
	0    1    -1   0   
$EndComp
$Comp
L C C336
U 1 1 5699855B
P 9600 4700
F 0 "C336" H 9600 4800 40  0000 L CNN
F 1 "1n1" H 9606 4615 40  0000 L CNN
F 2 "MyKiCadLibs-Footprints:SMD-0805" H 9638 4550 30  0001 C CNN
F 3 "" H 9600 4700 60  0000 C CNN
	1    9600 4700
	0    -1   1    0   
$EndComp
$Comp
L R R342
U 1 1 56998561
P 12100 5100
F 0 "R342" V 12020 5100 40  0000 C CNN
F 1 "100" V 12107 5101 40  0000 C CNN
F 2 "MyKiCadLibs-Footprints:SMD-1206" V 12030 5100 30  0001 C CNN
F 3 "" H 12100 5100 30  0000 C CNN
	1    12100 5100
	0    1    -1   0   
$EndComp
$Comp
L CP1 C355
U 1 1 56998567
P 12750 5100
F 0 "C355" H 12800 5200 50  0000 L CNN
F 1 "100u" H 12800 5000 50  0000 L CNN
F 2 "MyKiCadLibs-Footprints:CAP-TH-D10mmP5mm" H 12750 5100 60  0001 C CNN
F 3 "" H 12750 5100 60  0000 C CNN
	1    12750 5100
	0    -1   -1   0   
$EndComp
$Comp
L R R346
U 1 1 5699856F
P 12800 5650
F 0 "R346" V 12720 5650 40  0000 C CNN
F 1 "100K" V 12807 5651 40  0000 C CNN
F 2 "MyKiCadLibs-Footprints:SMD-1206" V 12730 5650 30  0001 C CNN
F 3 "" H 12800 5650 30  0000 C CNN
	1    12800 5650
	0    -1   1    0   
$EndComp
$Comp
L C C356
U 1 1 56998578
P 12750 5350
F 0 "C356" H 12750 5450 40  0000 L CNN
F 1 "100n" H 12756 5265 40  0000 L CNN
F 2 "MyKiCadLibs-Footprints:CAP_TH_5mm" H 12788 5200 30  0001 C CNN
F 3 "" H 12750 5350 60  0000 C CNN
	1    12750 5350
	0    -1   1    0   
$EndComp
$Comp
L GNDA #PWR62
U 1 1 56998583
P 12450 5750
F 0 "#PWR62" H 12450 5500 50  0001 C CNN
F 1 "GNDA" H 12450 5600 50  0000 C CNN
F 2 "" H 12450 5750 60  0000 C CNN
F 3 "" H 12450 5750 60  0000 C CNN
	1    12450 5750
	-1   0    0    -1  
$EndComp
$Comp
L R R339
U 1 1 5699858B
P 10850 5450
F 0 "R339" V 10770 5450 40  0000 C CNN
F 1 "422" V 10857 5451 40  0000 C CNN
F 2 "MyKiCadLibs-Footprints:SMD-1206" V 10780 5450 30  0001 C CNN
F 3 "" H 10850 5450 30  0000 C CNN
	1    10850 5450
	0    -1   1    0   
$EndComp
$Comp
L R R326
U 1 1 56998594
P 8900 5000
F 0 "R326" V 8820 5000 40  0000 C CNN
F 1 "1k5" V 8907 5001 40  0000 C CNN
F 2 "MyKiCadLibs-Footprints:SMD-1206" V 8830 5000 30  0001 C CNN
F 3 "" H 8900 5000 30  0000 C CNN
	1    8900 5000
	0    1    -1   0   
$EndComp
$Comp
L R R336
U 1 1 569985A6
P 10550 5650
F 0 "R336" V 10470 5650 40  0000 C CNN
F 1 "2k49" V 10557 5651 40  0000 C CNN
F 2 "MyKiCadLibs-Footprints:SMD-1206" V 10480 5650 30  0001 C CNN
F 3 "" H 10550 5650 30  0000 C CNN
	1    10550 5650
	0    1    -1   0   
$EndComp
$Comp
L GNDA #PWR54
U 1 1 569985B2
P 11450 5750
F 0 "#PWR54" H 11450 5500 50  0001 C CNN
F 1 "GNDA" H 11450 5600 50  0000 C CNN
F 2 "" H 11450 5750 60  0000 C CNN
F 3 "" H 11450 5750 60  0000 C CNN
	1    11450 5750
	-1   0    0    -1  
$EndComp
$Comp
L C C340
U 1 1 569985BA
P 9950 5350
F 0 "C340" H 9950 5450 40  0000 L CNN
F 1 "1n" H 9956 5265 40  0000 L CNN
F 2 "MyKiCadLibs-Footprints:SMD-0805" H 9988 5200 30  0001 C CNN
F 3 "" H 9950 5350 60  0000 C CNN
	1    9950 5350
	-1   0    0    -1  
$EndComp
$Comp
L GNDA #PWR46
U 1 1 569985C2
P 9950 5650
F 0 "#PWR46" H 9950 5400 50  0001 C CNN
F 1 "GNDA" H 9950 5500 50  0000 C CNN
F 2 "" H 9950 5650 60  0000 C CNN
F 3 "" H 9950 5650 60  0000 C CNN
	1    9950 5650
	-1   0    0    -1  
$EndComp
$Comp
L IC-OPAMP-DUAL-SOIC8 U303
U 1 1 569985D3
P 10850 3650
F 0 "U303" H 10900 3500 60  0000 L CNN
F 1 "IC-OPAMP-DUAL-SOIC8" H 10200 3900 60  0000 L CNN
F 2 "MyKiCadLibs-Footprints:IC_SOIC_8" H 10850 3650 60  0001 C CNN
F 3 "" H 10850 3650 60  0000 C CNN
	1    10850 3650
	1    0    0    -1  
$EndComp
$Comp
L R R329
U 1 1 569985D9
P 9600 3550
F 0 "R329" V 9520 3550 40  0000 C CNN
F 1 "1k54" V 9607 3551 40  0000 C CNN
F 2 "MyKiCadLibs-Footprints:SMD-1206" V 9530 3550 30  0001 C CNN
F 3 "" H 9600 3550 30  0000 C CNN
	1    9600 3550
	0    1    -1   0   
$EndComp
$Comp
L C C335
U 1 1 569985DF
P 9600 3250
F 0 "C335" H 9600 3350 40  0000 L CNN
F 1 "1n1" H 9606 3165 40  0000 L CNN
F 2 "MyKiCadLibs-Footprints:SMD-0805" H 9638 3100 30  0001 C CNN
F 3 "" H 9600 3250 60  0000 C CNN
	1    9600 3250
	0    -1   1    0   
$EndComp
$Comp
L R R341
U 1 1 569985E5
P 12100 3650
F 0 "R341" V 12020 3650 40  0000 C CNN
F 1 "100" V 12107 3651 40  0000 C CNN
F 2 "MyKiCadLibs-Footprints:SMD-1206" V 12030 3650 30  0001 C CNN
F 3 "" H 12100 3650 30  0000 C CNN
	1    12100 3650
	0    1    -1   0   
$EndComp
$Comp
L CP1 C353
U 1 1 569985EB
P 12750 3650
F 0 "C353" H 12800 3750 50  0000 L CNN
F 1 "100u" H 12800 3550 50  0000 L CNN
F 2 "MyKiCadLibs-Footprints:CAP-TH-D10mmP5mm" H 12750 3650 60  0001 C CNN
F 3 "" H 12750 3650 60  0000 C CNN
	1    12750 3650
	0    -1   -1   0   
$EndComp
$Comp
L R R345
U 1 1 569985F3
P 12800 4200
F 0 "R345" V 12720 4200 40  0000 C CNN
F 1 "100K" V 12807 4201 40  0000 C CNN
F 2 "MyKiCadLibs-Footprints:SMD-1206" V 12730 4200 30  0001 C CNN
F 3 "" H 12800 4200 30  0000 C CNN
	1    12800 4200
	0    -1   1    0   
$EndComp
$Comp
L C C354
U 1 1 569985FD
P 12750 3900
F 0 "C354" H 12750 4000 40  0000 L CNN
F 1 "100n" H 12756 3815 40  0000 L CNN
F 2 "MyKiCadLibs-Footprints:CAP_TH_5mm" H 12788 3750 30  0001 C CNN
F 3 "" H 12750 3900 60  0000 C CNN
	1    12750 3900
	0    -1   1    0   
$EndComp
$Comp
L GNDA #PWR61
U 1 1 56998608
P 12450 4300
F 0 "#PWR61" H 12450 4050 50  0001 C CNN
F 1 "GNDA" H 12450 4150 50  0000 C CNN
F 2 "" H 12450 4300 60  0000 C CNN
F 3 "" H 12450 4300 60  0000 C CNN
	1    12450 4300
	-1   0    0    -1  
$EndComp
$Comp
L R R333
U 1 1 56998610
P 10500 4050
F 0 "R333" V 10420 4050 40  0000 C CNN
F 1 "422" V 10507 4051 40  0000 C CNN
F 2 "MyKiCadLibs-Footprints:SMD-1206" V 10430 4050 30  0001 C CNN
F 3 "" H 10500 4050 30  0000 C CNN
	1    10500 4050
	0    -1   1    0   
$EndComp
$Comp
L R R325
U 1 1 56998619
P 8900 3550
F 0 "R325" V 8820 3550 40  0000 C CNN
F 1 "1k5" V 8907 3551 40  0000 C CNN
F 2 "MyKiCadLibs-Footprints:SMD-1206" V 8830 3550 30  0001 C CNN
F 3 "" H 8900 3550 30  0000 C CNN
	1    8900 3550
	0    1    -1   0   
$EndComp
$Comp
L R R335
U 1 1 5699862B
P 10550 4200
F 0 "R335" V 10470 4200 40  0000 C CNN
F 1 "2k49" V 10557 4201 40  0000 C CNN
F 2 "MyKiCadLibs-Footprints:SMD-1206" V 10480 4200 30  0001 C CNN
F 3 "" H 10550 4200 30  0000 C CNN
	1    10550 4200
	0    1    -1   0   
$EndComp
$Comp
L GNDA #PWR53
U 1 1 56998637
P 11450 4300
F 0 "#PWR53" H 11450 4050 50  0001 C CNN
F 1 "GNDA" H 11450 4150 50  0000 C CNN
F 2 "" H 11450 4300 60  0000 C CNN
F 3 "" H 11450 4300 60  0000 C CNN
	1    11450 4300
	-1   0    0    -1  
$EndComp
$Comp
L C C339
U 1 1 5699863F
P 9950 3900
F 0 "C339" H 9950 4000 40  0000 L CNN
F 1 "1n" H 9956 3815 40  0000 L CNN
F 2 "MyKiCadLibs-Footprints:SMD-0805" H 9988 3750 30  0001 C CNN
F 3 "" H 9950 3900 60  0000 C CNN
	1    9950 3900
	-1   0    0    -1  
$EndComp
$Comp
L GNDA #PWR45
U 1 1 56998647
P 9950 4200
F 0 "#PWR45" H 9950 3950 50  0001 C CNN
F 1 "GNDA" H 9950 4050 50  0000 C CNN
F 2 "" H 9950 4200 60  0000 C CNN
F 3 "" H 9950 4200 60  0000 C CNN
	1    9950 4200
	-1   0    0    -1  
$EndComp
$Comp
L +9VA #PWR37
U 1 1 5699865A
P 9100 3900
F 0 "#PWR37" H 9100 3775 50  0001 C CNN
F 1 "+9VA" H 9100 4050 50  0000 C CNN
F 2 "" H 9100 3900 50  0000 C CNN
F 3 "" H 9100 3900 50  0000 C CNN
	1    9100 3900
	1    0    0    -1  
$EndComp
$Comp
L -9VA #PWR41
U 1 1 56998660
P 9400 4450
F 0 "#PWR41" H 9400 4325 50  0001 C CNN
F 1 "-9VA" H 9400 4600 50  0000 C CNN
F 2 "" H 9400 4450 50  0000 C CNN
F 3 "" H 9400 4450 50  0000 C CNN
	1    9400 4450
	-1   0    0    1   
$EndComp
$Comp
L -9VA #PWR58
U 1 1 56998666
P 12150 4550
F 0 "#PWR58" H 12150 4425 50  0001 C CNN
F 1 "-9VA" H 12150 4700 50  0000 C CNN
F 2 "" H 12150 4550 50  0000 C CNN
F 3 "" H 12150 4550 50  0000 C CNN
	1    12150 4550
	-1   0    0    1   
$EndComp
$Comp
L +9VA #PWR57
U 1 1 5699866C
P 12150 3950
F 0 "#PWR57" H 12150 3825 50  0001 C CNN
F 1 "+9VA" H 12150 4100 50  0000 C CNN
F 2 "" H 12150 3950 50  0000 C CNN
F 3 "" H 12150 3950 50  0000 C CNN
	1    12150 3950
	1    0    0    -1  
$EndComp
$Comp
L C C350
U 1 1 56998682
P 11900 7150
F 0 "C350" H 11900 7250 40  0000 L CNN
F 1 "100n" H 11906 7065 40  0000 L CNN
F 2 "MyKiCadLibs-Footprints:SMD-0805" H 11938 7000 30  0001 C CNN
F 3 "" H 11900 7150 60  0000 C CNN
	1    11900 7150
	1    0    0    -1  
$EndComp
$Comp
L C C352
U 1 1 56998688
P 12150 7150
F 0 "C352" H 12150 7250 40  0000 L CNN
F 1 "1n" H 12156 7065 40  0000 L CNN
F 2 "MyKiCadLibs-Footprints:SMD-0805" H 12188 7000 30  0001 C CNN
F 3 "" H 12150 7150 60  0000 C CNN
	1    12150 7150
	1    0    0    -1  
$EndComp
$Comp
L C C332
U 1 1 5699868E
P 9100 7100
F 0 "C332" H 9100 7200 40  0000 L CNN
F 1 "100n" H 9106 7015 40  0000 L CNN
F 2 "MyKiCadLibs-Footprints:SMD-0805" H 9138 6950 30  0001 C CNN
F 3 "" H 9100 7100 60  0000 C CNN
	1    9100 7100
	1    0    0    -1  
$EndComp
$Comp
L GNDA #PWR40
U 1 1 56998694
P 9100 7350
F 0 "#PWR40" H 9100 7100 50  0001 C CNN
F 1 "GNDA" H 9100 7200 50  0000 C CNN
F 2 "" H 9100 7350 60  0000 C CNN
F 3 "" H 9100 7350 60  0000 C CNN
	1    9100 7350
	-1   0    0    -1  
$EndComp
$Comp
L C C334
U 1 1 5699869C
P 9400 7100
F 0 "C334" H 9400 7200 40  0000 L CNN
F 1 "100n" H 9406 7015 40  0000 L CNN
F 2 "MyKiCadLibs-Footprints:SMD-0805" H 9438 6950 30  0001 C CNN
F 3 "" H 9400 7100 60  0000 C CNN
	1    9400 7100
	1    0    0    -1  
$EndComp
$Comp
L GNDA #PWR44
U 1 1 569986A2
P 9650 6900
F 0 "#PWR44" H 9650 6650 50  0001 C CNN
F 1 "GNDA" H 9650 6750 50  0000 C CNN
F 2 "" H 9650 6900 60  0000 C CNN
F 3 "" H 9650 6900 60  0000 C CNN
	1    9650 6900
	-1   0    0    -1  
$EndComp
$Comp
L C C348
U 1 1 569986AC
P 11650 7150
F 0 "C348" H 11650 7250 40  0000 L CNN
F 1 "10u" H 11656 7065 40  0000 L CNN
F 2 "MyKiCadLibs-Footprints:SMD-1206" H 11688 7000 30  0001 C CNN
F 3 "" H 11650 7150 60  0000 C CNN
	1    11650 7150
	1    0    0    -1  
$EndComp
$Comp
L IC-OPAMP-DUAL-SOIC8 U304
U 2 1 569986B2
P 10850 8000
F 0 "U304" H 10900 7850 60  0000 L CNN
F 1 "IC-OPAMP-DUAL-SOIC8" H 10200 8250 60  0000 L CNN
F 2 "MyKiCadLibs-Footprints:IC_SOIC_8" H 10850 8000 60  0001 C CNN
F 3 "" H 10850 8000 60  0000 C CNN
	2    10850 8000
	1    0    0    -1  
$EndComp
$Comp
L -9VA #PWR52
U 1 1 569986B8
P 10850 7200
F 0 "#PWR52" H 10850 7075 50  0001 C CNN
F 1 "-9VA" H 10850 7350 50  0000 C CNN
F 2 "" H 10850 7200 50  0000 C CNN
F 3 "" H 10850 7200 50  0000 C CNN
	1    10850 7200
	-1   0    0    1   
$EndComp
$Comp
L +9VA #PWR51
U 1 1 569986BE
P 10850 6100
F 0 "#PWR51" H 10850 5975 50  0001 C CNN
F 1 "+9VA" H 10850 6250 50  0000 C CNN
F 2 "" H 10850 6100 50  0000 C CNN
F 3 "" H 10850 6100 50  0000 C CNN
	1    10850 6100
	1    0    0    -1  
$EndComp
$Comp
L R R332
U 1 1 569986C4
P 9600 7900
F 0 "R332" V 9520 7900 40  0000 C CNN
F 1 "1k54" V 9607 7901 40  0000 C CNN
F 2 "MyKiCadLibs-Footprints:SMD-1206" V 9530 7900 30  0001 C CNN
F 3 "" H 9600 7900 30  0000 C CNN
	1    9600 7900
	0    1    -1   0   
$EndComp
$Comp
L C C338
U 1 1 569986CA
P 9600 7600
F 0 "C338" H 9600 7700 40  0000 L CNN
F 1 "1n1" H 9606 7515 40  0000 L CNN
F 2 "MyKiCadLibs-Footprints:SMD-0805" H 9638 7450 30  0001 C CNN
F 3 "" H 9600 7600 60  0000 C CNN
	1    9600 7600
	0    -1   1    0   
$EndComp
$Comp
L R R344
U 1 1 569986D0
P 12100 8000
F 0 "R344" V 12020 8000 40  0000 C CNN
F 1 "100" V 12107 8001 40  0000 C CNN
F 2 "MyKiCadLibs-Footprints:SMD-1206" V 12030 8000 30  0001 C CNN
F 3 "" H 12100 8000 30  0000 C CNN
	1    12100 8000
	0    1    -1   0   
$EndComp
$Comp
L CP1 C359
U 1 1 569986D6
P 12750 8000
F 0 "C359" H 12800 8100 50  0000 L CNN
F 1 "100u" H 12800 7900 50  0000 L CNN
F 2 "MyKiCadLibs-Footprints:CAP-TH-D10mmP5mm" H 12750 8000 60  0001 C CNN
F 3 "" H 12750 8000 60  0000 C CNN
	1    12750 8000
	0    -1   -1   0   
$EndComp
$Comp
L R R348
U 1 1 569986DE
P 12800 8550
F 0 "R348" V 12720 8550 40  0000 C CNN
F 1 "100K" V 12807 8551 40  0000 C CNN
F 2 "MyKiCadLibs-Footprints:SMD-1206" V 12730 8550 30  0001 C CNN
F 3 "" H 12800 8550 30  0000 C CNN
	1    12800 8550
	0    -1   1    0   
$EndComp
$Comp
L C C360
U 1 1 569986E6
P 12750 8250
F 0 "C360" H 12750 8350 40  0000 L CNN
F 1 "100n" H 12756 8165 40  0000 L CNN
F 2 "MyKiCadLibs-Footprints:CAP_TH_5mm" H 12788 8100 30  0001 C CNN
F 3 "" H 12750 8250 60  0000 C CNN
	1    12750 8250
	0    -1   1    0   
$EndComp
$Comp
L GNDA #PWR64
U 1 1 569986F1
P 12450 8650
F 0 "#PWR64" H 12450 8400 50  0001 C CNN
F 1 "GNDA" H 12450 8500 50  0000 C CNN
F 2 "" H 12450 8650 60  0000 C CNN
F 3 "" H 12450 8650 60  0000 C CNN
	1    12450 8650
	-1   0    0    -1  
$EndComp
$Comp
L R R340
U 1 1 569986F9
P 10850 8350
F 0 "R340" V 10770 8350 40  0000 C CNN
F 1 "422" V 10857 8351 40  0000 C CNN
F 2 "MyKiCadLibs-Footprints:SMD-1206" V 10780 8350 30  0001 C CNN
F 3 "" H 10850 8350 30  0000 C CNN
	1    10850 8350
	0    -1   1    0   
$EndComp
$Comp
L R R328
U 1 1 56998702
P 8900 7900
F 0 "R328" V 8820 7900 40  0000 C CNN
F 1 "1k5" V 8907 7901 40  0000 C CNN
F 2 "MyKiCadLibs-Footprints:SMD-1206" V 8830 7900 30  0001 C CNN
F 3 "" H 8900 7900 30  0000 C CNN
	1    8900 7900
	0    1    -1   0   
$EndComp
$Comp
L R R338
U 1 1 56998714
P 10550 8550
F 0 "R338" V 10470 8550 40  0000 C CNN
F 1 "2k49" V 10557 8551 40  0000 C CNN
F 2 "MyKiCadLibs-Footprints:SMD-1206" V 10480 8550 30  0001 C CNN
F 3 "" H 10550 8550 30  0000 C CNN
	1    10550 8550
	0    1    -1   0   
$EndComp
$Comp
L GNDA #PWR56
U 1 1 56998720
P 11450 8650
F 0 "#PWR56" H 11450 8400 50  0001 C CNN
F 1 "GNDA" H 11450 8500 50  0000 C CNN
F 2 "" H 11450 8650 60  0000 C CNN
F 3 "" H 11450 8650 60  0000 C CNN
	1    11450 8650
	-1   0    0    -1  
$EndComp
$Comp
L C C342
U 1 1 56998728
P 9950 8250
F 0 "C342" H 9950 8350 40  0000 L CNN
F 1 "1n" H 9956 8165 40  0000 L CNN
F 2 "MyKiCadLibs-Footprints:SMD-0805" H 9988 8100 30  0001 C CNN
F 3 "" H 9950 8250 60  0000 C CNN
	1    9950 8250
	-1   0    0    -1  
$EndComp
$Comp
L GNDA #PWR48
U 1 1 56998730
P 9950 8550
F 0 "#PWR48" H 9950 8300 50  0001 C CNN
F 1 "GNDA" H 9950 8400 50  0000 C CNN
F 2 "" H 9950 8550 60  0000 C CNN
F 3 "" H 9950 8550 60  0000 C CNN
	1    9950 8550
	-1   0    0    -1  
$EndComp
$Comp
L IC-OPAMP-DUAL-SOIC8 U304
U 1 1 56998741
P 10850 6550
F 0 "U304" H 10900 6400 60  0000 L CNN
F 1 "IC-OPAMP-DUAL-SOIC8" H 10200 6800 60  0000 L CNN
F 2 "MyKiCadLibs-Footprints:IC_SOIC_8" H 10850 6550 60  0001 C CNN
F 3 "" H 10850 6550 60  0000 C CNN
	1    10850 6550
	1    0    0    -1  
$EndComp
$Comp
L R R331
U 1 1 56998747
P 9600 6450
F 0 "R331" V 9520 6450 40  0000 C CNN
F 1 "1k54" V 9607 6451 40  0000 C CNN
F 2 "MyKiCadLibs-Footprints:SMD-1206" V 9530 6450 30  0001 C CNN
F 3 "" H 9600 6450 30  0000 C CNN
	1    9600 6450
	0    1    -1   0   
$EndComp
$Comp
L C C337
U 1 1 5699874D
P 9600 6150
F 0 "C337" H 9600 6250 40  0000 L CNN
F 1 "1n1" H 9606 6065 40  0000 L CNN
F 2 "MyKiCadLibs-Footprints:SMD-0805" H 9638 6000 30  0001 C CNN
F 3 "" H 9600 6150 60  0000 C CNN
	1    9600 6150
	0    -1   1    0   
$EndComp
$Comp
L R R343
U 1 1 56998753
P 12100 6550
F 0 "R343" V 12020 6550 40  0000 C CNN
F 1 "100" V 12107 6551 40  0000 C CNN
F 2 "MyKiCadLibs-Footprints:SMD-1206" V 12030 6550 30  0001 C CNN
F 3 "" H 12100 6550 30  0000 C CNN
	1    12100 6550
	0    1    -1   0   
$EndComp
$Comp
L CP1 C357
U 1 1 56998759
P 12750 6550
F 0 "C357" H 12800 6650 50  0000 L CNN
F 1 "100u" H 12800 6450 50  0000 L CNN
F 2 "MyKiCadLibs-Footprints:CAP-TH-D10mmP5mm" H 12750 6550 60  0001 C CNN
F 3 "" H 12750 6550 60  0000 C CNN
	1    12750 6550
	0    -1   -1   0   
$EndComp
$Comp
L R R347
U 1 1 56998761
P 12800 7100
F 0 "R347" V 12720 7100 40  0000 C CNN
F 1 "100K" V 12807 7101 40  0000 C CNN
F 2 "MyKiCadLibs-Footprints:SMD-1206" V 12730 7100 30  0001 C CNN
F 3 "" H 12800 7100 30  0000 C CNN
	1    12800 7100
	0    -1   1    0   
$EndComp
$Comp
L C C358
U 1 1 56998769
P 12750 6800
F 0 "C358" H 12750 6900 40  0000 L CNN
F 1 "100n" H 12756 6715 40  0000 L CNN
F 2 "MyKiCadLibs-Footprints:CAP_TH_5mm" H 12788 6650 30  0001 C CNN
F 3 "" H 12750 6800 60  0000 C CNN
	1    12750 6800
	0    -1   1    0   
$EndComp
$Comp
L GNDA #PWR63
U 1 1 56998774
P 12450 7200
F 0 "#PWR63" H 12450 6950 50  0001 C CNN
F 1 "GNDA" H 12450 7050 50  0000 C CNN
F 2 "" H 12450 7200 60  0000 C CNN
F 3 "" H 12450 7200 60  0000 C CNN
	1    12450 7200
	-1   0    0    -1  
$EndComp
$Comp
L R R334
U 1 1 5699877C
P 10500 6950
F 0 "R334" V 10420 6950 40  0000 C CNN
F 1 "422" V 10507 6951 40  0000 C CNN
F 2 "MyKiCadLibs-Footprints:SMD-1206" V 10430 6950 30  0001 C CNN
F 3 "" H 10500 6950 30  0000 C CNN
	1    10500 6950
	0    -1   1    0   
$EndComp
$Comp
L R R327
U 1 1 56998785
P 8900 6450
F 0 "R327" V 8820 6450 40  0000 C CNN
F 1 "1k5" V 8907 6451 40  0000 C CNN
F 2 "MyKiCadLibs-Footprints:SMD-1206" V 8830 6450 30  0001 C CNN
F 3 "" H 8900 6450 30  0000 C CNN
	1    8900 6450
	0    1    -1   0   
$EndComp
$Comp
L R R337
U 1 1 56998797
P 10550 7100
F 0 "R337" V 10470 7100 40  0000 C CNN
F 1 "2k49" V 10557 7101 40  0000 C CNN
F 2 "MyKiCadLibs-Footprints:SMD-1206" V 10480 7100 30  0001 C CNN
F 3 "" H 10550 7100 30  0000 C CNN
	1    10550 7100
	0    1    -1   0   
$EndComp
$Comp
L GNDA #PWR55
U 1 1 569987A3
P 11450 7200
F 0 "#PWR55" H 11450 6950 50  0001 C CNN
F 1 "GNDA" H 11450 7050 50  0000 C CNN
F 2 "" H 11450 7200 60  0000 C CNN
F 3 "" H 11450 7200 60  0000 C CNN
	1    11450 7200
	-1   0    0    -1  
$EndComp
$Comp
L C C341
U 1 1 569987AB
P 9950 6800
F 0 "C341" H 9950 6900 40  0000 L CNN
F 1 "1n" H 9956 6715 40  0000 L CNN
F 2 "MyKiCadLibs-Footprints:SMD-0805" H 9988 6650 30  0001 C CNN
F 3 "" H 9950 6800 60  0000 C CNN
	1    9950 6800
	-1   0    0    -1  
$EndComp
$Comp
L GNDA #PWR47
U 1 1 569987B3
P 9950 7100
F 0 "#PWR47" H 9950 6850 50  0001 C CNN
F 1 "GNDA" H 9950 6950 50  0000 C CNN
F 2 "" H 9950 7100 60  0000 C CNN
F 3 "" H 9950 7100 60  0000 C CNN
	1    9950 7100
	-1   0    0    -1  
$EndComp
$Comp
L +9VA #PWR39
U 1 1 569987C6
P 9100 6800
F 0 "#PWR39" H 9100 6675 50  0001 C CNN
F 1 "+9VA" H 9100 6950 50  0000 C CNN
F 2 "" H 9100 6800 50  0000 C CNN
F 3 "" H 9100 6800 50  0000 C CNN
	1    9100 6800
	1    0    0    -1  
$EndComp
$Comp
L -9VA #PWR42
U 1 1 569987CC
P 9400 7350
F 0 "#PWR42" H 9400 7225 50  0001 C CNN
F 1 "-9VA" H 9400 7500 50  0000 C CNN
F 2 "" H 9400 7350 50  0000 C CNN
F 3 "" H 9400 7350 50  0000 C CNN
	1    9400 7350
	-1   0    0    1   
$EndComp
$Comp
L -9VA #PWR60
U 1 1 569987D2
P 12150 7450
F 0 "#PWR60" H 12150 7325 50  0001 C CNN
F 1 "-9VA" H 12150 7600 50  0000 C CNN
F 2 "" H 12150 7450 50  0000 C CNN
F 3 "" H 12150 7450 50  0000 C CNN
	1    12150 7450
	-1   0    0    1   
$EndComp
$Comp
L +9VA #PWR59
U 1 1 569987D8
P 12150 6850
F 0 "#PWR59" H 12150 6725 50  0001 C CNN
F 1 "+9VA" H 12150 7000 50  0000 C CNN
F 2 "" H 12150 6850 50  0000 C CNN
F 3 "" H 12150 6850 50  0000 C CNN
	1    12150 6850
	1    0    0    -1  
$EndComp
Text Label 1850 1750 2    60   ~ 0
IN1+
Text Label 1850 1850 2    60   ~ 0
IN1-
Text Label 1850 1950 2    60   ~ 0
IN2+
Text Label 1850 2050 2    60   ~ 0
IN2-
Text Label 1850 2150 2    60   ~ 0
IN3+
Text Label 1850 2250 2    60   ~ 0
IN3-
Text Label 1850 2350 2    60   ~ 0
IN4+
Text Label 1850 2450 2    60   ~ 0
IN4-
Text Label 14350 1500 0    60   ~ 0
OUT1+
Text Label 14350 1600 0    60   ~ 0
OUT1-
Text Label 14350 1700 0    60   ~ 0
OUT2+
Text Label 14350 1800 0    60   ~ 0
OUT2-
Text Label 14350 1900 0    60   ~ 0
OUT3+
Text Label 14350 2000 0    60   ~ 0
OUT3-
Text Label 14350 2100 0    60   ~ 0
OUT4+
Text Label 14350 2200 0    60   ~ 0
OUT4-
Text Label 1900 3450 0    60   ~ 0
IN1+
Text Label 1900 4900 0    60   ~ 0
IN1-
Text Label 1900 6350 0    60   ~ 0
IN2+
Text Label 1900 7800 0    60   ~ 0
IN2-
Text Label 8300 6450 0    60   ~ 0
IN4+
Text Label 8300 7900 0    60   ~ 0
IN4-
Text Label 8300 3550 0    60   ~ 0
IN3+
Text Label 8300 5000 0    60   ~ 0
IN3-
Text Label 7200 3550 2    60   ~ 0
OUT1+
Text Label 7200 5000 2    60   ~ 0
OUT1-
Wire Wire Line
	1500 1650 1500 2900
Wire Wire Line
	1500 2550 1400 2550
Wire Wire Line
	1500 1650 1400 1650
Connection ~ 1500 2550
Wire Wire Line
	800  1650 800  2900
Wire Wire Line
	800  2550 900  2550
Wire Wire Line
	800  2450 900  2450
Connection ~ 800  2550
Wire Wire Line
	900  2350 800  2350
Connection ~ 800  2450
Wire Wire Line
	900  2250 800  2250
Connection ~ 800  2350
Wire Wire Line
	900  2150 800  2150
Connection ~ 800  2250
Wire Wire Line
	900  2050 800  2050
Connection ~ 800  2150
Wire Wire Line
	900  1950 800  1950
Connection ~ 800  2050
Wire Wire Line
	900  1850 800  1850
Connection ~ 800  1950
Wire Wire Line
	900  1750 800  1750
Connection ~ 800  1850
Wire Wire Line
	900  1650 800  1650
Connection ~ 800  1750
Wire Wire Line
	2700 4350 2700 4300
Wire Wire Line
	2700 3900 2700 3800
Wire Wire Line
	3250 3900 3250 3800
Wire Wire Line
	3250 3800 3000 3800
Wire Wire Line
	3000 3800 3000 3900
Wire Wire Line
	3000 4300 3000 4350
Wire Wire Line
	800  3400 800  3550
Wire Wire Line
	800  2750 1500 2750
Connection ~ 800  2750
Wire Wire Line
	1500 3400 1500 3550
Connection ~ 1500 2750
Wire Wire Line
	1000 2950 1000 2750
Connection ~ 1000 2750
Wire Wire Line
	1000 3350 1000 3450
Wire Wire Line
	1000 3450 800  3450
Connection ~ 800  3450
Wire Wire Line
	1250 2950 1250 2750
Connection ~ 1250 2750
Wire Wire Line
	1250 3350 1250 3450
Wire Wire Line
	1250 3450 1500 3450
Connection ~ 1500 3450
Connection ~ 14850 3200
Wire Wire Line
	15100 3200 14850 3200
Wire Wire Line
	15100 3100 15100 3200
Connection ~ 15100 2500
Wire Wire Line
	15100 2500 15100 2700
Connection ~ 15550 3200
Wire Wire Line
	15350 3200 15550 3200
Wire Wire Line
	15350 3100 15350 3200
Connection ~ 15350 2500
Wire Wire Line
	15350 2500 15350 2700
Connection ~ 14850 2500
Wire Wire Line
	14850 3150 14850 3300
Connection ~ 15550 2500
Wire Wire Line
	14850 2500 15550 2500
Wire Wire Line
	15550 3150 15550 3300
Connection ~ 15550 1500
Wire Wire Line
	15450 1400 15550 1400
Connection ~ 15550 1600
Wire Wire Line
	15450 1500 15550 1500
Connection ~ 15550 1700
Wire Wire Line
	15550 1600 15450 1600
Connection ~ 15550 1800
Wire Wire Line
	15550 1700 15450 1700
Connection ~ 15550 1900
Wire Wire Line
	15550 1800 15450 1800
Connection ~ 15550 2000
Wire Wire Line
	15550 1900 15450 1900
Connection ~ 15550 2100
Wire Wire Line
	15550 2000 15450 2000
Connection ~ 15550 2200
Wire Wire Line
	15550 2100 15450 2100
Connection ~ 15550 2300
Wire Wire Line
	15550 2200 15450 2200
Wire Wire Line
	15550 2300 15450 2300
Wire Wire Line
	15550 1400 15550 2650
Connection ~ 14850 2300
Wire Wire Line
	14850 1400 14950 1400
Wire Wire Line
	14850 2300 14950 2300
Wire Wire Line
	14850 1400 14850 2650
Wire Wire Line
	5950 5000 6150 5000
Wire Wire Line
	6700 5000 6700 5550
Wire Wire Line
	6550 5000 7200 5000
Wire Wire Line
	6150 5250 6050 5250
Wire Wire Line
	6050 5250 6050 5000
Connection ~ 6050 5000
Wire Wire Line
	6550 5250 6700 5250
Connection ~ 6700 5250
Wire Wire Line
	6050 5650 6050 5550
Connection ~ 6700 5000
Wire Wire Line
	4950 5000 5450 5000
Wire Wire Line
	3450 4900 3950 4900
Wire Wire Line
	2750 4900 2950 4900
Wire Wire Line
	3000 4600 2850 4600
Wire Wire Line
	2850 4600 2850 4900
Connection ~ 2850 4900
Wire Wire Line
	3400 4600 5150 4600
Wire Wire Line
	5150 4600 5150 5000
Connection ~ 5150 5000
Wire Wire Line
	5050 5000 5050 5350
Connection ~ 5050 5000
Wire Wire Line
	5050 5550 5050 5650
Wire Wire Line
	3950 5100 3750 5100
Wire Wire Line
	3550 5050 3550 4900
Connection ~ 3550 4900
Wire Wire Line
	3550 5550 3550 5450
Wire Wire Line
	5050 5350 4700 5350
Wire Wire Line
	4200 5350 3750 5350
Wire Wire Line
	3750 5100 3750 5550
Wire Wire Line
	5050 5550 4950 5550
Wire Wire Line
	3750 5550 3900 5550
Connection ~ 3750 5350
Wire Wire Line
	4400 5550 4550 5550
Wire Wire Line
	6700 5550 6650 5550
Wire Wire Line
	6050 5550 6150 5550
Wire Wire Line
	5950 3550 6150 3550
Wire Wire Line
	6700 3550 6700 4100
Wire Wire Line
	6150 3800 6050 3800
Wire Wire Line
	6050 3800 6050 3550
Connection ~ 6050 3550
Wire Wire Line
	6550 3800 6700 3800
Connection ~ 6700 3800
Wire Wire Line
	6050 4200 6050 4100
Connection ~ 6700 3550
Wire Wire Line
	4950 3550 5450 3550
Wire Wire Line
	3450 3450 3950 3450
Wire Wire Line
	2750 3450 2950 3450
Wire Wire Line
	3000 3150 2850 3150
Wire Wire Line
	2850 3150 2850 3450
Connection ~ 2850 3450
Wire Wire Line
	3400 3150 5150 3150
Wire Wire Line
	5150 3150 5150 3550
Connection ~ 5150 3550
Wire Wire Line
	5050 3550 5050 3950
Connection ~ 5050 3550
Wire Wire Line
	5050 4100 5050 4200
Wire Wire Line
	3950 3650 3750 3650
Wire Wire Line
	3550 3600 3550 3450
Connection ~ 3550 3450
Wire Wire Line
	3550 4100 3550 4000
Wire Wire Line
	5050 3950 4350 3950
Wire Wire Line
	3850 3950 3750 3950
Wire Wire Line
	3750 3650 3750 4100
Wire Wire Line
	5050 4100 4950 4100
Wire Wire Line
	3750 4100 3900 4100
Connection ~ 3750 3950
Wire Wire Line
	4400 4100 4550 4100
Wire Wire Line
	6700 4100 6650 4100
Wire Wire Line
	6050 4100 6150 4100
Wire Wire Line
	4450 4200 4450 3900
Wire Wire Line
	4450 3100 4450 3200
Wire Wire Line
	5750 3850 5750 3950
Wire Wire Line
	5750 4350 5750 4450
Wire Wire Line
	5500 4350 5500 4400
Wire Wire Line
	5250 4400 5750 4400
Connection ~ 5750 4400
Wire Wire Line
	5250 4350 5250 4400
Connection ~ 5500 4400
Wire Wire Line
	5500 3950 5500 3900
Wire Wire Line
	5250 3900 5750 3900
Connection ~ 5750 3900
Wire Wire Line
	5250 3950 5250 3900
Connection ~ 5500 3900
Wire Wire Line
	2700 7250 2700 7200
Wire Wire Line
	2700 6800 2700 6700
Wire Wire Line
	3250 6800 3250 6700
Wire Wire Line
	3250 6700 3000 6700
Wire Wire Line
	3000 6700 3000 6800
Wire Wire Line
	3000 7200 3000 7250
Wire Wire Line
	5950 7900 6150 7900
Wire Wire Line
	6700 7900 6700 8450
Wire Wire Line
	6150 8150 6050 8150
Wire Wire Line
	6050 8150 6050 7900
Connection ~ 6050 7900
Wire Wire Line
	6550 8150 6700 8150
Connection ~ 6700 8150
Wire Wire Line
	6050 8550 6050 8450
Connection ~ 6700 7900
Wire Wire Line
	4950 7900 5450 7900
Wire Wire Line
	3450 7800 3950 7800
Wire Wire Line
	2750 7800 2950 7800
Wire Wire Line
	3000 7500 2850 7500
Wire Wire Line
	2850 7500 2850 7800
Connection ~ 2850 7800
Wire Wire Line
	3400 7500 5150 7500
Wire Wire Line
	5150 7500 5150 7900
Connection ~ 5150 7900
Wire Wire Line
	5050 7900 5050 8250
Connection ~ 5050 7900
Wire Wire Line
	5050 8450 5050 8550
Wire Wire Line
	3950 8000 3750 8000
Wire Wire Line
	3550 7950 3550 7800
Connection ~ 3550 7800
Wire Wire Line
	3550 8450 3550 8350
Wire Wire Line
	5050 8250 4700 8250
Wire Wire Line
	4200 8250 3750 8250
Wire Wire Line
	3750 8000 3750 8450
Wire Wire Line
	5050 8450 4950 8450
Wire Wire Line
	3750 8450 3900 8450
Connection ~ 3750 8250
Wire Wire Line
	4400 8450 4550 8450
Wire Wire Line
	6700 8450 6650 8450
Wire Wire Line
	6050 8450 6150 8450
Wire Wire Line
	5950 6450 6150 6450
Wire Wire Line
	6700 6450 6700 7000
Wire Wire Line
	6150 6700 6050 6700
Wire Wire Line
	6050 6700 6050 6450
Connection ~ 6050 6450
Wire Wire Line
	6550 6700 6700 6700
Connection ~ 6700 6700
Wire Wire Line
	6050 7100 6050 7000
Connection ~ 6700 6450
Wire Wire Line
	4950 6450 5450 6450
Wire Wire Line
	3450 6350 3950 6350
Wire Wire Line
	2750 6350 2950 6350
Wire Wire Line
	3000 6050 2850 6050
Wire Wire Line
	2850 6050 2850 6350
Connection ~ 2850 6350
Wire Wire Line
	3400 6050 5150 6050
Wire Wire Line
	5150 6050 5150 6450
Connection ~ 5150 6450
Wire Wire Line
	5050 6450 5050 6850
Connection ~ 5050 6450
Wire Wire Line
	5050 7000 5050 7100
Wire Wire Line
	3950 6550 3750 6550
Wire Wire Line
	3550 6500 3550 6350
Connection ~ 3550 6350
Wire Wire Line
	3550 7000 3550 6900
Wire Wire Line
	5050 6850 4350 6850
Wire Wire Line
	3850 6850 3750 6850
Wire Wire Line
	3750 6550 3750 7000
Wire Wire Line
	5050 7000 4950 7000
Wire Wire Line
	3750 7000 3900 7000
Connection ~ 3750 6850
Wire Wire Line
	4400 7000 4550 7000
Wire Wire Line
	6700 7000 6650 7000
Wire Wire Line
	6050 7000 6150 7000
Wire Wire Line
	4450 7100 4450 6800
Wire Wire Line
	4450 6000 4450 6100
Wire Wire Line
	5750 6750 5750 6850
Wire Wire Line
	5750 7250 5750 7350
Wire Wire Line
	5500 7250 5500 7300
Wire Wire Line
	5250 7300 5750 7300
Connection ~ 5750 7300
Wire Wire Line
	5250 7250 5250 7300
Connection ~ 5500 7300
Wire Wire Line
	5500 6850 5500 6800
Wire Wire Line
	5250 6800 5750 6800
Connection ~ 5750 6800
Wire Wire Line
	5250 6850 5250 6800
Connection ~ 5500 6800
Wire Wire Line
	9100 4450 9100 4400
Wire Wire Line
	9100 4000 9100 3900
Wire Wire Line
	9650 4000 9650 3900
Wire Wire Line
	9650 3900 9400 3900
Wire Wire Line
	9400 3900 9400 4000
Wire Wire Line
	9400 4400 9400 4450
Wire Wire Line
	12350 5100 12550 5100
Wire Wire Line
	13100 5100 13100 5650
Wire Wire Line
	12950 5100 13600 5100
Wire Wire Line
	12550 5350 12450 5350
Wire Wire Line
	12450 5350 12450 5100
Connection ~ 12450 5100
Wire Wire Line
	12950 5350 13100 5350
Connection ~ 13100 5350
Wire Wire Line
	12450 5750 12450 5650
Connection ~ 13100 5100
Wire Wire Line
	11350 5100 11850 5100
Wire Wire Line
	9850 5000 10350 5000
Wire Wire Line
	9150 5000 9350 5000
Wire Wire Line
	9400 4700 9250 4700
Wire Wire Line
	9250 4700 9250 5000
Connection ~ 9250 5000
Wire Wire Line
	9800 4700 11550 4700
Wire Wire Line
	11550 4700 11550 5100
Connection ~ 11550 5100
Wire Wire Line
	11450 5100 11450 5450
Connection ~ 11450 5100
Wire Wire Line
	11450 5650 11450 5750
Wire Wire Line
	10350 5200 10150 5200
Wire Wire Line
	9950 5150 9950 5000
Connection ~ 9950 5000
Wire Wire Line
	9950 5650 9950 5550
Wire Wire Line
	11450 5450 11100 5450
Wire Wire Line
	10600 5450 10150 5450
Wire Wire Line
	10150 5200 10150 5650
Wire Wire Line
	11450 5650 11350 5650
Wire Wire Line
	10150 5650 10300 5650
Connection ~ 10150 5450
Wire Wire Line
	10800 5650 10950 5650
Wire Wire Line
	13100 5650 13050 5650
Wire Wire Line
	12450 5650 12550 5650
Wire Wire Line
	12350 3650 12550 3650
Wire Wire Line
	13100 3650 13100 4200
Wire Wire Line
	12550 3900 12450 3900
Wire Wire Line
	12450 3900 12450 3650
Connection ~ 12450 3650
Wire Wire Line
	12950 3900 13100 3900
Connection ~ 13100 3900
Wire Wire Line
	12450 4300 12450 4200
Connection ~ 13100 3650
Wire Wire Line
	11350 3650 11850 3650
Wire Wire Line
	9850 3550 10350 3550
Wire Wire Line
	9150 3550 9350 3550
Wire Wire Line
	9400 3250 9250 3250
Wire Wire Line
	9250 3250 9250 3550
Connection ~ 9250 3550
Wire Wire Line
	9800 3250 11550 3250
Wire Wire Line
	11550 3250 11550 3650
Connection ~ 11550 3650
Wire Wire Line
	11450 3650 11450 4050
Connection ~ 11450 3650
Wire Wire Line
	11450 4200 11450 4300
Wire Wire Line
	10350 3750 10150 3750
Wire Wire Line
	9950 3700 9950 3550
Connection ~ 9950 3550
Wire Wire Line
	9950 4200 9950 4100
Wire Wire Line
	11450 4050 10750 4050
Wire Wire Line
	10250 4050 10150 4050
Wire Wire Line
	10150 3750 10150 4200
Wire Wire Line
	11450 4200 11350 4200
Wire Wire Line
	10150 4200 10300 4200
Connection ~ 10150 4050
Wire Wire Line
	10800 4200 10950 4200
Wire Wire Line
	13100 4200 13050 4200
Wire Wire Line
	12450 4200 12550 4200
Wire Wire Line
	10850 4300 10850 4000
Wire Wire Line
	10850 3200 10850 3300
Wire Wire Line
	12150 3950 12150 4050
Wire Wire Line
	12150 4450 12150 4550
Wire Wire Line
	11900 4450 11900 4500
Wire Wire Line
	11650 4500 12150 4500
Connection ~ 12150 4500
Wire Wire Line
	11650 4450 11650 4500
Connection ~ 11900 4500
Wire Wire Line
	11900 4050 11900 4000
Wire Wire Line
	11650 4000 12150 4000
Connection ~ 12150 4000
Wire Wire Line
	11650 4050 11650 4000
Connection ~ 11900 4000
Wire Wire Line
	9100 7350 9100 7300
Wire Wire Line
	9100 6900 9100 6800
Wire Wire Line
	9650 6900 9650 6800
Wire Wire Line
	9650 6800 9400 6800
Wire Wire Line
	9400 6800 9400 6900
Wire Wire Line
	9400 7300 9400 7350
Wire Wire Line
	12350 8000 12550 8000
Wire Wire Line
	13100 8000 13100 8550
Wire Wire Line
	12550 8250 12450 8250
Wire Wire Line
	12450 8250 12450 8000
Connection ~ 12450 8000
Wire Wire Line
	12950 8250 13100 8250
Connection ~ 13100 8250
Wire Wire Line
	12450 8650 12450 8550
Connection ~ 13100 8000
Wire Wire Line
	11350 8000 11850 8000
Wire Wire Line
	9850 7900 10350 7900
Wire Wire Line
	9150 7900 9350 7900
Wire Wire Line
	9400 7600 9250 7600
Wire Wire Line
	9250 7600 9250 7900
Connection ~ 9250 7900
Wire Wire Line
	9800 7600 11550 7600
Wire Wire Line
	11550 7600 11550 8000
Connection ~ 11550 8000
Wire Wire Line
	11450 8000 11450 8350
Connection ~ 11450 8000
Wire Wire Line
	11450 8550 11450 8650
Wire Wire Line
	10350 8100 10150 8100
Wire Wire Line
	9950 8050 9950 7900
Connection ~ 9950 7900
Wire Wire Line
	9950 8550 9950 8450
Wire Wire Line
	11450 8350 11100 8350
Wire Wire Line
	10600 8350 10150 8350
Wire Wire Line
	10150 8100 10150 8550
Wire Wire Line
	11450 8550 11350 8550
Wire Wire Line
	10150 8550 10300 8550
Connection ~ 10150 8350
Wire Wire Line
	10800 8550 10950 8550
Wire Wire Line
	13100 8550 13050 8550
Wire Wire Line
	12450 8550 12550 8550
Wire Wire Line
	12350 6550 12550 6550
Wire Wire Line
	13100 6550 13100 7100
Wire Wire Line
	12550 6800 12450 6800
Wire Wire Line
	12450 6800 12450 6550
Connection ~ 12450 6550
Wire Wire Line
	12950 6800 13100 6800
Connection ~ 13100 6800
Wire Wire Line
	12450 7200 12450 7100
Connection ~ 13100 6550
Wire Wire Line
	11350 6550 11850 6550
Wire Wire Line
	9850 6450 10350 6450
Wire Wire Line
	9150 6450 9350 6450
Wire Wire Line
	9400 6150 9250 6150
Wire Wire Line
	9250 6150 9250 6450
Connection ~ 9250 6450
Wire Wire Line
	9800 6150 11550 6150
Wire Wire Line
	11550 6150 11550 6550
Connection ~ 11550 6550
Wire Wire Line
	11450 6550 11450 6950
Connection ~ 11450 6550
Wire Wire Line
	11450 7100 11450 7200
Wire Wire Line
	10350 6650 10150 6650
Wire Wire Line
	9950 6600 9950 6450
Connection ~ 9950 6450
Wire Wire Line
	9950 7100 9950 7000
Wire Wire Line
	11450 6950 10750 6950
Wire Wire Line
	10250 6950 10150 6950
Wire Wire Line
	10150 6650 10150 7100
Wire Wire Line
	11450 7100 11350 7100
Wire Wire Line
	10150 7100 10300 7100
Connection ~ 10150 6950
Wire Wire Line
	10800 7100 10950 7100
Wire Wire Line
	13100 7100 13050 7100
Wire Wire Line
	12450 7100 12550 7100
Wire Wire Line
	10850 7200 10850 6900
Wire Wire Line
	10850 6100 10850 6200
Wire Wire Line
	12150 6850 12150 6950
Wire Wire Line
	12150 7350 12150 7450
Wire Wire Line
	11900 7350 11900 7400
Wire Wire Line
	11650 7400 12150 7400
Connection ~ 12150 7400
Wire Wire Line
	11650 7350 11650 7400
Connection ~ 11900 7400
Wire Wire Line
	11900 6950 11900 6900
Wire Wire Line
	11650 6900 12150 6900
Connection ~ 12150 6900
Wire Wire Line
	11650 6950 11650 6900
Connection ~ 11900 6900
Wire Wire Line
	1850 1750 1400 1750
Wire Wire Line
	1400 1850 1850 1850
Wire Wire Line
	1850 1950 1400 1950
Wire Wire Line
	1400 2050 1850 2050
Wire Wire Line
	1850 2150 1400 2150
Wire Wire Line
	1400 2250 1850 2250
Wire Wire Line
	1400 2350 1850 2350
Wire Wire Line
	1400 2450 1850 2450
Wire Wire Line
	14350 2200 14950 2200
Wire Wire Line
	14950 2100 14350 2100
Wire Wire Line
	14350 2000 14950 2000
Wire Wire Line
	14950 1900 14350 1900
Wire Wire Line
	14950 1800 14350 1800
Wire Wire Line
	14350 1700 14950 1700
Wire Wire Line
	14950 1600 14350 1600
Wire Wire Line
	14350 1500 14950 1500
Wire Wire Line
	1900 3450 2250 3450
Wire Wire Line
	2250 4900 1900 4900
Wire Wire Line
	1900 6350 2250 6350
Wire Wire Line
	2250 7800 1900 7800
Wire Wire Line
	8300 6450 8650 6450
Wire Wire Line
	8650 7900 8300 7900
Wire Wire Line
	8300 3550 8650 3550
Wire Wire Line
	8650 5000 8300 5000
Wire Wire Line
	7200 3550 6550 3550
Text Label 7200 6450 2    60   ~ 0
OUT2+
Text Label 7200 7900 2    60   ~ 0
OUT2-
Wire Wire Line
	7200 6450 6550 6450
Wire Wire Line
	7200 7900 6550 7900
Text Label 13600 3650 2    60   ~ 0
OUT3+
Text Label 13600 5100 2    60   ~ 0
OUT3-
Wire Wire Line
	13600 3650 12950 3650
Text Label 13600 6550 2    60   ~ 0
OUT4+
Text Label 13600 8000 2    60   ~ 0
OUT4-
Wire Wire Line
	13600 6550 12950 6550
Wire Wire Line
	13600 8000 12950 8000
$Comp
L CP1 C312
U 1 1 56997776
P 4750 5550
F 0 "C312" H 4800 5650 50  0000 L CNN
F 1 "100u" H 4800 5450 50  0000 L CNN
F 2 "MyKiCadLibs-Footprints:CAP-TH-D6.3mmP2.5mm" H 4750 5550 60  0001 C CNN
F 3 "" H 4750 5550 60  0000 C CNN
	1    4750 5550
	0    -1   1    0   
$EndComp
$Comp
L CP1 C313
U 1 1 569988F1
P 4750 7000
F 0 "C313" H 4800 7100 50  0000 L CNN
F 1 "100u" H 4800 6900 50  0000 L CNN
F 2 "MyKiCadLibs-Footprints:CAP-TH-D6.3mmP2.5mm" H 4750 7000 60  0001 C CNN
F 3 "" H 4750 7000 60  0000 C CNN
	1    4750 7000
	0    -1   1    0   
$EndComp
$Comp
L CP1 C314
U 1 1 56998AAA
P 4750 8450
F 0 "C314" H 4800 8550 50  0000 L CNN
F 1 "100u" H 4800 8350 50  0000 L CNN
F 2 "MyKiCadLibs-Footprints:CAP-TH-D6.3mmP2.5mm" H 4750 8450 60  0001 C CNN
F 3 "" H 4750 8450 60  0000 C CNN
	1    4750 8450
	0    -1   1    0   
$EndComp
$Comp
L CP1 C345
U 1 1 56999BC5
P 11150 7100
F 0 "C345" H 11200 7200 50  0000 L CNN
F 1 "100u" H 11200 7000 50  0000 L CNN
F 2 "MyKiCadLibs-Footprints:CAP-TH-D6.3mmP2.5mm" H 11150 7100 60  0001 C CNN
F 3 "" H 11150 7100 60  0000 C CNN
	1    11150 7100
	0    -1   1    0   
$EndComp
$Comp
L CP1 C344
U 1 1 5699A74E
P 11150 5650
F 0 "C344" H 11200 5750 50  0000 L CNN
F 1 "100u" H 11200 5550 50  0000 L CNN
F 2 "MyKiCadLibs-Footprints:CAP-TH-D6.3mmP2.5mm" H 11150 5650 60  0001 C CNN
F 3 "" H 11150 5650 60  0000 C CNN
	1    11150 5650
	0    -1   1    0   
$EndComp
$Comp
L CP1 C343
U 1 1 5699A8F9
P 11150 4200
F 0 "C343" H 11200 4300 50  0000 L CNN
F 1 "100u" H 11200 4100 50  0000 L CNN
F 2 "MyKiCadLibs-Footprints:CAP-TH-D6.3mmP2.5mm" H 11150 4200 60  0001 C CNN
F 3 "" H 11150 4200 60  0000 C CNN
	1    11150 4200
	0    -1   1    0   
$EndComp
$Comp
L CP1 C361
U 1 1 569BB3A0
P 11150 8550
F 0 "C361" H 11200 8650 50  0000 L CNN
F 1 "100u" H 11200 8450 50  0000 L CNN
F 2 "MyKiCadLibs-Footprints:CAP-TH-D6.3mmP2.5mm" H 11150 8550 60  0001 C CNN
F 3 "" H 11150 8550 60  0000 C CNN
	1    11150 8550
	0    -1   1    0   
$EndComp
Text Notes 750  900  0    118  ~ 0
Differential to Differential Filters
Text Notes 900  1450 0    60   ~ 0
Differential\nInputs
Text Notes 15000 1200 0    60   ~ 0
Differential\nOutputs
Text Notes 800  1050 0    60   ~ 0
Four active differential output filters
$EndSCHEMATC
