EESchema Schematic File Version 2
LIBS:power
LIBS:MyKiCadLibs-Lib
LIBS:BUF-DiffToDiff-ADAU1966-cache
EELAYER 25 0
EELAYER END
$Descr A4 11693 8268
encoding utf-8
Sheet 2 3
Title "OHDSP BUF-DiffToDiff-ADAU1966"
Date "22 Jan 16"
Rev "1.0"
Comp ""
Comment1 "MERCHANTABILITY, SATISFACTORY QUALITY AND FITNESS FOR A PARTICULAR PURPOSE."
Comment2 "is distributed WITHOUT ANY EXPRESS OR IMPLIED WARRANTY, INCLUDING OF"
Comment3 "Licensed under the TAPR Open Hardware License (www.tapr.org/OHL). This documentation"
Comment4 "Copyright Paul Janicki 2016"
$EndDescr
$Comp
L CONN_2x1 P203
U 1 1 562E6C0C
P 3650 3100
F 0 "P203" V 4145 2945 40  0000 C CNN
F 1 "CONN_2x1" V 4090 3060 40  0000 C CNN
F 2 "MyKiCadLibs-Footprints:CONN-2WAY-2.54mm-3.81mm-SPACING" H 3990 2990 60  0001 C CNN
F 3 "" H 3990 2990 60  0000 C CNN
	1    3650 3100
	-1   0    0    -1  
$EndComp
$Comp
L GNDA #PWR2
U 1 1 562E6E50
P 7750 3500
F 0 "#PWR2" H 7750 3250 50  0001 C CNN
F 1 "GNDA" H 7750 3350 50  0000 C CNN
F 2 "" H 7750 3500 60  0000 C CNN
F 3 "" H 7750 3500 60  0000 C CNN
	1    7750 3500
	1    0    0    -1  
$EndComp
$Comp
L INDUCTOR L201
U 1 1 562E788F
P 5725 2150
F 0 "L201" V 5675 2150 40  0000 C CNN
F 1 "600R@100MHz" V 5825 2150 40  0000 C CNN
F 2 "MyKiCadLibs-Footprints:SMD-0805" H 5725 2150 60  0001 C CNN
F 3 "" H 5725 2150 60  0000 C CNN
	1    5725 2150
	0    -1   -1   0   
$EndComp
$Comp
L R R201
U 1 1 562E8A2F
P 6200 3050
F 0 "R201" V 6120 3050 40  0000 C CNN
F 1 "47R" V 6207 3051 40  0000 C CNN
F 2 "MyKiCadLibs-Footprints:SMD-0805" V 6130 3050 30  0001 C CNN
F 3 "" H 6200 3050 30  0000 C CNN
	1    6200 3050
	1    0    0    -1  
$EndComp
$Comp
L C C207
U 1 1 562E8A35
P 6200 2500
F 0 "C207" H 6200 2600 40  0000 L CNN
F 1 "100p" H 6206 2415 40  0000 L CNN
F 2 "MyKiCadLibs-Footprints:SMD-0805" H 6238 2350 30  0001 C CNN
F 3 "" H 6200 2500 60  0000 C CNN
	1    6200 2500
	-1   0    0    -1  
$EndComp
$Comp
L C C203
U 1 1 562E9365
P 5050 2750
F 0 "C203" H 5050 2850 40  0000 L CNN
F 1 "100n" H 5056 2665 40  0000 L CNN
F 2 "MyKiCadLibs-Footprints:SMD-0805" H 5088 2600 30  0001 C CNN
F 3 "" H 5050 2750 60  0000 C CNN
	1    5050 2750
	1    0    0    -1  
$EndComp
$Comp
L C C205
U 1 1 562E958D
P 5300 2750
F 0 "C205" H 5300 2850 40  0000 L CNN
F 1 "10n" H 5306 2665 40  0000 L CNN
F 2 "MyKiCadLibs-Footprints:SMD-0805" H 5338 2600 30  0001 C CNN
F 3 "" H 5300 2750 60  0000 C CNN
	1    5300 2750
	1    0    0    -1  
$EndComp
$Comp
L C C211
U 1 1 562E9901
P 7150 2750
F 0 "C211" H 7150 2850 40  0000 L CNN
F 1 "100n" H 7156 2665 40  0000 L CNN
F 2 "MyKiCadLibs-Footprints:SMD-0805" H 7188 2600 30  0001 C CNN
F 3 "" H 7150 2750 60  0000 C CNN
	1    7150 2750
	1    0    0    -1  
$EndComp
$Comp
L DIODE D201
U 1 1 563ACD52
P 4150 2150
F 0 "D201" H 4150 2250 40  0000 C CNN
F 1 "SS14" H 4150 2050 40  0000 C CNN
F 2 "MyKiCadLibs-Footprints:DIODE-SOD-123" H 4150 2150 60  0001 C CNN
F 3 "" H 4150 2150 60  0000 C CNN
	1    4150 2150
	1    0    0    -1  
$EndComp
$Comp
L C C213
U 1 1 565D3488
P 7400 2750
F 0 "C213" H 7400 2850 40  0000 L CNN
F 1 "10n" H 7406 2665 40  0000 L CNN
F 2 "MyKiCadLibs-Footprints:SMD-0805" H 7438 2600 30  0001 C CNN
F 3 "" H 7400 2750 60  0000 C CNN
	1    7400 2750
	1    0    0    -1  
$EndComp
Connection ~ 7150 3400
Wire Wire Line
	7150 3400 7150 2950
Connection ~ 6550 3400
Wire Wire Line
	6550 3400 6550 2950
Connection ~ 6550 2150
Wire Wire Line
	7150 2150 7150 2550
Wire Wire Line
	6550 2150 6550 2550
Wire Wire Line
	4350 2150 5425 2150
Wire Wire Line
	3850 3100 3850 2150
Wire Wire Line
	3650 3100 3850 3100
Wire Wire Line
	7750 3400 7750 3500
Wire Wire Line
	3850 3200 3850 3400
Wire Wire Line
	3650 3200 3850 3200
Wire Wire Line
	6200 3400 6200 3300
Wire Wire Line
	6200 2700 6200 2800
Wire Wire Line
	6200 2300 6200 2150
Connection ~ 6200 2150
Connection ~ 6200 3400
Connection ~ 7150 2150
Wire Wire Line
	5050 3400 5050 2950
Wire Wire Line
	4450 3400 4450 2950
Wire Wire Line
	5050 2150 5050 2550
Wire Wire Line
	4450 2150 4450 2550
Wire Wire Line
	5300 3400 5300 2950
Wire Wire Line
	5300 2150 5300 2550
Connection ~ 4450 3400
Connection ~ 5050 3400
Connection ~ 5300 3400
Connection ~ 4450 2150
Connection ~ 5050 2150
Connection ~ 5300 2150
Wire Wire Line
	3850 2150 3950 2150
Wire Wire Line
	7400 2150 7400 2550
Connection ~ 7400 2150
Wire Wire Line
	7400 3400 7400 2950
Connection ~ 7400 3400
$Comp
L CP1 C209
U 1 1 56802718
P 6550 2750
F 0 "C209" H 6600 2850 50  0000 L CNN
F 1 "220u" H 6600 2650 50  0000 L CNN
F 2 "MyKiCadLibs-Footprints:CAP-TH-D8mmP3.5mm" H 6550 2750 60  0001 C CNN
F 3 "" H 6550 2750 60  0000 C CNN
	1    6550 2750
	1    0    0    -1  
$EndComp
$Comp
L CP1 C201
U 1 1 56802B0A
P 4450 2750
F 0 "C201" H 4500 2850 50  0000 L CNN
F 1 "220u" H 4500 2650 50  0000 L CNN
F 2 "MyKiCadLibs-Footprints:CAP-TH-D8mmP3.5mm" H 4450 2750 60  0001 C CNN
F 3 "" H 4450 2750 60  0000 C CNN
	1    4450 2750
	1    0    0    -1  
$EndComp
Wire Wire Line
	6025 2150 7750 2150
Wire Wire Line
	3875 3400 7750 3400
$Comp
L INDUCTOR L202
U 1 1 5682F621
P 5725 5200
F 0 "L202" V 5675 5200 40  0000 C CNN
F 1 "600R@100MHz" V 5825 5200 40  0000 C CNN
F 2 "MyKiCadLibs-Footprints:SMD-0805" H 5725 5200 60  0001 C CNN
F 3 "" H 5725 5200 60  0000 C CNN
	1    5725 5200
	0    -1   -1   0   
$EndComp
$Comp
L R R202
U 1 1 5682F627
P 6200 4350
F 0 "R202" V 6120 4350 40  0000 C CNN
F 1 "47R" V 6207 4351 40  0000 C CNN
F 2 "MyKiCadLibs-Footprints:SMD-0805" V 6130 4350 30  0001 C CNN
F 3 "" H 6200 4350 30  0000 C CNN
	1    6200 4350
	1    0    0    -1  
$EndComp
$Comp
L C C208
U 1 1 5682F62D
P 6200 4900
F 0 "C208" H 6200 5000 40  0000 L CNN
F 1 "100p" H 6206 4815 40  0000 L CNN
F 2 "MyKiCadLibs-Footprints:SMD-0805" H 6238 4750 30  0001 C CNN
F 3 "" H 6200 4900 60  0000 C CNN
	1    6200 4900
	-1   0    0    -1  
$EndComp
$Comp
L C C204
U 1 1 5682F633
P 5050 4550
F 0 "C204" H 5050 4650 40  0000 L CNN
F 1 "100n" H 5056 4465 40  0000 L CNN
F 2 "MyKiCadLibs-Footprints:SMD-0805" H 5088 4400 30  0001 C CNN
F 3 "" H 5050 4550 60  0000 C CNN
	1    5050 4550
	1    0    0    -1  
$EndComp
$Comp
L C C206
U 1 1 5682F639
P 5300 4550
F 0 "C206" H 5300 4650 40  0000 L CNN
F 1 "10n" H 5306 4465 40  0000 L CNN
F 2 "MyKiCadLibs-Footprints:SMD-0805" H 5338 4400 30  0001 C CNN
F 3 "" H 5300 4550 60  0000 C CNN
	1    5300 4550
	1    0    0    -1  
$EndComp
$Comp
L C C212
U 1 1 5682F645
P 7150 4550
F 0 "C212" H 7150 4650 40  0000 L CNN
F 1 "100n" H 7156 4465 40  0000 L CNN
F 2 "MyKiCadLibs-Footprints:SMD-0805" H 7188 4400 30  0001 C CNN
F 3 "" H 7150 4550 60  0000 C CNN
	1    7150 4550
	1    0    0    -1  
$EndComp
$Comp
L DIODE D202
U 1 1 5682F64B
P 4150 5200
F 0 "D202" H 4150 5300 40  0000 C CNN
F 1 "SS14" H 4150 5100 40  0000 C CNN
F 2 "MyKiCadLibs-Footprints:DIODE-SOD-123" H 4150 5200 60  0001 C CNN
F 3 "" H 4150 5200 60  0000 C CNN
	1    4150 5200
	-1   0    0    1   
$EndComp
$Comp
L C C214
U 1 1 5682F651
P 7400 4550
F 0 "C214" H 7400 4650 40  0000 L CNN
F 1 "10n" H 7406 4465 40  0000 L CNN
F 2 "MyKiCadLibs-Footprints:SMD-0805" H 7438 4400 30  0001 C CNN
F 3 "" H 7400 4550 60  0000 C CNN
	1    7400 4550
	1    0    0    -1  
$EndComp
Connection ~ 7150 5200
Wire Wire Line
	7150 5200 7150 4750
Connection ~ 6550 5200
Wire Wire Line
	6550 5200 6550 4750
Connection ~ 6550 3950
Wire Wire Line
	7150 3950 7150 4350
Wire Wire Line
	6550 3950 6550 4350
Wire Wire Line
	3875 3950 7800 3950
Wire Wire Line
	3850 4900 3850 3950
Wire Wire Line
	3650 4900 3850 4900
Wire Wire Line
	7750 5200 7750 5300
Wire Wire Line
	3850 5000 3850 5200
Wire Wire Line
	3650 5000 3850 5000
Wire Wire Line
	6200 5200 6200 5100
Wire Wire Line
	6200 4100 6200 3950
Connection ~ 6200 3950
Connection ~ 6200 5200
Connection ~ 7150 3950
Wire Wire Line
	5050 5200 5050 4750
Wire Wire Line
	4450 5200 4450 4750
Wire Wire Line
	5050 3950 5050 4350
Wire Wire Line
	4450 3950 4450 4350
Wire Wire Line
	5300 5200 5300 4750
Wire Wire Line
	5300 3950 5300 4350
Connection ~ 4450 5200
Connection ~ 5050 5200
Connection ~ 5300 5200
Connection ~ 4450 3950
Connection ~ 5050 3950
Connection ~ 5300 3950
Wire Wire Line
	7400 3950 7400 4350
Connection ~ 7400 3950
Wire Wire Line
	7400 5200 7400 4750
Connection ~ 7400 5200
$Comp
L CP1 C210
U 1 1 5682F682
P 6550 4550
F 0 "C210" H 6600 4650 50  0000 L CNN
F 1 "220u" H 6600 4450 50  0000 L CNN
F 2 "MyKiCadLibs-Footprints:CAP-TH-D8mmP3.5mm" H 6550 4550 60  0001 C CNN
F 3 "" H 6550 4550 60  0000 C CNN
	1    6550 4550
	1    0    0    -1  
$EndComp
$Comp
L CP1 C202
U 1 1 5682F688
P 4450 4550
F 0 "C202" H 4500 4650 50  0000 L CNN
F 1 "220u" H 4500 4450 50  0000 L CNN
F 2 "MyKiCadLibs-Footprints:CAP-TH-D8mmP3.5mm" H 4450 4550 60  0001 C CNN
F 3 "" H 4450 4550 60  0000 C CNN
	1    4450 4550
	1    0    0    -1  
$EndComp
Wire Wire Line
	4350 5200 5425 5200
Wire Wire Line
	6025 5200 7750 5200
Wire Wire Line
	3850 5200 3950 5200
$Comp
L CONN_2x1 P204
U 1 1 56830AC9
P 3650 4900
F 0 "P204" V 4145 4745 40  0000 C CNN
F 1 "CONN_2x1" V 4090 4860 40  0000 C CNN
F 2 "MyKiCadLibs-Footprints:CONN-2WAY-2.54mm-3.81mm-SPACING" H 3990 4790 60  0001 C CNN
F 3 "" H 3990 4790 60  0000 C CNN
	1    3650 4900
	-1   0    0    -1  
$EndComp
$Comp
L GNDA #PWR4
U 1 1 56830E36
P 7800 4025
F 0 "#PWR4" H 7800 3775 50  0001 C CNN
F 1 "GNDA" H 7800 3875 50  0000 C CNN
F 2 "" H 7800 4025 60  0000 C CNN
F 3 "" H 7800 4025 60  0000 C CNN
	1    7800 4025
	1    0    0    -1  
$EndComp
Wire Wire Line
	7800 3950 7800 4025
Wire Wire Line
	6200 4700 6200 4600
Wire Wire Line
	7750 2150 7750 2050
$Comp
L C C217
U 1 1 56854B8D
P 6900 2750
F 0 "C217" H 6900 2850 40  0000 L CNN
F 1 "22u" H 6906 2665 40  0000 L CNN
F 2 "MyKiCadLibs-Footprints:SMD-0805" H 6938 2600 30  0001 C CNN
F 3 "" H 6900 2750 60  0000 C CNN
	1    6900 2750
	1    0    0    -1  
$EndComp
Wire Wire Line
	6900 2550 6900 2150
Connection ~ 6900 2150
Wire Wire Line
	6900 2950 6900 3400
Connection ~ 6900 3400
$Comp
L C C218
U 1 1 5685594A
P 6900 4550
F 0 "C218" H 6900 4650 40  0000 L CNN
F 1 "22u" H 6906 4465 40  0000 L CNN
F 2 "MyKiCadLibs-Footprints:SMD-0805" H 6938 4400 30  0001 C CNN
F 3 "" H 6900 4550 60  0000 C CNN
	1    6900 4550
	1    0    0    -1  
$EndComp
Wire Wire Line
	6900 4350 6900 3950
Wire Wire Line
	6900 4750 6900 5200
Connection ~ 6900 3950
Connection ~ 6900 5200
$Comp
L C C219
U 1 1 568562FB
P 4800 2750
F 0 "C219" H 4800 2850 40  0000 L CNN
F 1 "22u" H 4806 2665 40  0000 L CNN
F 2 "MyKiCadLibs-Footprints:SMD-0805" H 4838 2600 30  0001 C CNN
F 3 "" H 4800 2750 60  0000 C CNN
	1    4800 2750
	1    0    0    -1  
$EndComp
Wire Wire Line
	4800 2550 4800 2150
Wire Wire Line
	4800 2950 4800 3400
$Comp
L C C220
U 1 1 568563C0
P 4800 4550
F 0 "C220" H 4800 4650 40  0000 L CNN
F 1 "22u" H 4806 4465 40  0000 L CNN
F 2 "MyKiCadLibs-Footprints:SMD-0805" H 4838 4400 30  0001 C CNN
F 3 "" H 4800 4550 60  0000 C CNN
	1    4800 4550
	1    0    0    -1  
$EndComp
Wire Wire Line
	4800 4350 4800 3950
Wire Wire Line
	4800 4750 4800 5200
Connection ~ 4800 5200
Connection ~ 4800 3950
Connection ~ 4800 3400
Connection ~ 4800 2150
$Comp
L PWR_FLAG #FLG2
U 1 1 569017DB
P 7275 2050
F 0 "#FLG2" H 7275 2145 50  0001 C CNN
F 1 "PWR_FLAG" H 7275 2230 50  0000 C CNN
F 2 "" H 7275 2050 50  0000 C CNN
F 3 "" H 7275 2050 50  0000 C CNN
	1    7275 2050
	1    0    0    -1  
$EndComp
Wire Wire Line
	7275 2050 7275 2150
Connection ~ 7275 2150
$Comp
L PWR_FLAG #FLG3
U 1 1 56901E16
P 7275 5300
F 0 "#FLG3" H 7275 5395 50  0001 C CNN
F 1 "PWR_FLAG" H 7275 5480 50  0000 C CNN
F 2 "" H 7275 5300 50  0000 C CNN
F 3 "" H 7275 5300 50  0000 C CNN
	1    7275 5300
	-1   0    0    1   
$EndComp
Wire Wire Line
	7275 5300 7275 5200
Connection ~ 7275 5200
$Comp
L PWR_FLAG #FLG1
U 1 1 56901EBF
P 6975 3850
F 0 "#FLG1" H 6975 3945 50  0001 C CNN
F 1 "PWR_FLAG" H 6975 4030 50  0000 C CNN
F 2 "" H 6975 3850 50  0000 C CNN
F 3 "" H 6975 3850 50  0000 C CNN
	1    6975 3850
	1    0    0    -1  
$EndComp
Wire Wire Line
	6975 3850 6975 3950
Connection ~ 6975 3950
$Comp
L +9VA #PWR1
U 1 1 569950EE
P 7750 2050
F 0 "#PWR1" H 7750 1925 50  0001 C CNN
F 1 "+9VA" H 7750 2200 50  0000 C CNN
F 2 "" H 7750 2050 50  0000 C CNN
F 3 "" H 7750 2050 50  0000 C CNN
	1    7750 2050
	1    0    0    -1  
$EndComp
$Comp
L -9VA #PWR3
U 1 1 56995142
P 7750 5300
F 0 "#PWR3" H 7750 5175 50  0001 C CNN
F 1 "-9VA" H 7750 5450 50  0000 C CNN
F 2 "" H 7750 5300 50  0000 C CNN
F 3 "" H 7750 5300 50  0000 C CNN
	1    7750 5300
	-1   0    0    1   
$EndComp
Text Notes 1000 1000 0    118  ~ 0
Power Supply Filtering
Text Notes 900  6900 0    60   ~ 0
Mounting Holes
Text Notes 3250 2950 0    60   ~ 0
+9V Input
Text Notes 3250 4750 0    60   ~ 0
-9V Input
Text Notes 7900 2050 0    60   ~ 0
Filtered +9V output
Text Notes 7850 5250 0    60   ~ 0
Filtered -9V output
$Comp
L C C221
U 1 1 56AF9417
P 8600 3600
F 0 "C221" H 8600 3700 40  0000 L CNN
F 1 "100n" H 8606 3515 40  0000 L CNN
F 2 "MyKiCadLibs-Footprints:SMD-0805" H 8638 3450 30  0001 C CNN
F 3 "" H 8600 3600 60  0000 C CNN
	1    8600 3600
	1    0    0    -1  
$EndComp
$Comp
L C C222
U 1 1 56AF9490
P 8900 3600
F 0 "C222" H 8900 3700 40  0000 L CNN
F 1 "10u" H 8906 3515 40  0000 L CNN
F 2 "MyKiCadLibs-Footprints:SMD-1206" H 8938 3450 30  0001 C CNN
F 3 "" H 8900 3600 60  0000 C CNN
	1    8900 3600
	1    0    0    -1  
$EndComp
$Comp
L +9VA #PWR5
U 1 1 56B4AB73
P 8600 3300
F 0 "#PWR5" H 8600 3175 50  0001 C CNN
F 1 "+9VA" H 8600 3450 50  0000 C CNN
F 2 "" H 8600 3300 50  0000 C CNN
F 3 "" H 8600 3300 50  0000 C CNN
	1    8600 3300
	1    0    0    -1  
$EndComp
$Comp
L -9VA #PWR6
U 1 1 56B4ABE4
P 8600 3900
F 0 "#PWR6" H 8600 3775 50  0001 C CNN
F 1 "-9VA" H 8600 4050 50  0000 C CNN
F 2 "" H 8600 3900 50  0000 C CNN
F 3 "" H 8600 3900 50  0000 C CNN
	1    8600 3900
	-1   0    0    1   
$EndComp
Wire Wire Line
	8600 3800 8600 3900
Wire Wire Line
	8600 3400 8600 3300
Wire Wire Line
	8600 3850 8900 3850
Wire Wire Line
	8900 3850 8900 3800
Connection ~ 8600 3850
Wire Wire Line
	8900 3400 8900 3350
Wire Wire Line
	8900 3350 8600 3350
Connection ~ 8600 3350
$Comp
L MNT_HOLE MNT1
U 1 1 56EB07DF
P 1000 7100
F 0 "MNT1" H 1000 7200 60  0000 C CNN
F 1 "MNT_HOLE" H 1000 7200 60  0001 C CNN
F 2 "MyKiCadLibs-Footprints:MNT_HOLE_3.2mm" H 1000 7200 60  0001 C CNN
F 3 "" H 1000 7200 60  0000 C CNN
	1    1000 7100
	1    0    0    -1  
$EndComp
$Comp
L MNT_HOLE MNT3
U 1 1 56EB093B
P 1700 7100
F 0 "MNT3" H 1700 7200 60  0000 C CNN
F 1 "MNT_HOLE" H 1700 7200 60  0001 C CNN
F 2 "MyKiCadLibs-Footprints:MNT_HOLE_3.2mm" H 1700 7200 60  0001 C CNN
F 3 "" H 1700 7200 60  0000 C CNN
	1    1700 7100
	1    0    0    -1  
$EndComp
$Comp
L MNT_HOLE MNT2
U 1 1 56EB09B9
P 1000 7450
F 0 "MNT2" H 1000 7550 60  0000 C CNN
F 1 "MNT_HOLE" H 1000 7550 60  0001 C CNN
F 2 "MyKiCadLibs-Footprints:MNT_HOLE_3.2mm" H 1000 7550 60  0001 C CNN
F 3 "" H 1000 7550 60  0000 C CNN
	1    1000 7450
	1    0    0    -1  
$EndComp
$Comp
L MNT_HOLE MNT4
U 1 1 56EB0A48
P 1700 7450
F 0 "MNT4" H 1700 7550 60  0000 C CNN
F 1 "MNT_HOLE" H 1700 7550 60  0001 C CNN
F 2 "MyKiCadLibs-Footprints:MNT_HOLE_3.2mm" H 1700 7550 60  0001 C CNN
F 3 "" H 1700 7550 60  0000 C CNN
	1    1700 7450
	1    0    0    -1  
$EndComp
$EndSCHEMATC
